%!PS-Adobe-3.0 EPSF-3.0
%%Title: nGamesForType2Error.eps
%%Creator: matplotlib version 2.1.0, http://matplotlib.org/
%%CreationDate: Tue Nov 12 20:53:07 2019
%%Orientation: portrait
%%BoundingBox: -270 -180 882 972
%%EndComments
%%BeginProlog
/mpldict 9 dict def
mpldict begin
/m { moveto } bind def
/l { lineto } bind def
/r { rlineto } bind def
/c { curveto } bind def
/cl { closepath } bind def
/box {
m
1 index 0 r
0 exch r
neg 0 r
cl
} bind def
/clipbox {
box
clip
newpath
} bind def
%!PS-Adobe-3.0 Resource-Font
%%Title: DejaVu Sans
%%Copyright: Copyright (c) 2003 by Bitstream, Inc. All Rights Reserved. Copyright (c) 2006 by Tavmjong Bah. All Rights Reserved. DejaVu changes are in public domain 
%%Creator: Converted from TrueType to type 3 by PPR
25 dict begin
/_d{bind def}bind def
/_m{moveto}_d
/_l{lineto}_d
/_cl{closepath eofill}_d
/_c{curveto}_d
/_sc{7 -1 roll{setcachedevice}{pop pop pop pop pop pop}ifelse}_d
/_e{exec}_d
/FontName /DejaVuSans def
/PaintType 0 def
/FontMatrix[.001 0 0 .001 0 0]def
/FontBBox[-1021 -463 1793 1232]def
/FontType 3 def
/Encoding [ /space /comma /period /zero /one /two /three /four /five /six /seven /eight /nine /equal /D /I /M /N /T /a /b /c /d /e /f /g /h /i /l /m /n /o /p /q /r /s /t /u /y ] def
/FontInfo 10 dict dup begin
/FamilyName (DejaVu Sans) def
/FullName (DejaVu Sans) def
/Notice (Copyright (c) 2003 by Bitstream, Inc. All Rights Reserved. Copyright (c) 2006 by Tavmjong Bah. All Rights Reserved. DejaVu changes are in public domain ) def
/Weight (Book) def
/Version (Version 2.35) def
/ItalicAngle 0.0 def
/isFixedPitch false def
/UnderlinePosition -130 def
/UnderlineThickness 90 def
end readonly def
/CharStrings 40 dict dup begin
/.notdef 0 def
/space{318 0 0 0 0 0 _sc
}_d
/comma{318 0 77 -115 220 124 _sc
117 124 _m
220 124 _l
220 40 _l
140 -115 _l
77 -115 _l
117 40 _l
117 124 _l
_cl}_d
/period{318 0 107 0 210 124 _sc
107 124 _m
210 124 _l
210 0 _l
107 0 _l
107 124 _l
_cl}_d
/zero{636 0 66 -13 570 742 _sc
318 664 _m
267 664 229 639 203 589 _c
177 539 165 464 165 364 _c
165 264 177 189 203 139 _c
229 89 267 64 318 64 _c
369 64 407 89 433 139 _c
458 189 471 264 471 364 _c
471 464 458 539 433 589 _c
407 639 369 664 318 664 _c
318 742 _m
399 742 461 709 505 645 _c
548 580 570 486 570 364 _c
570 241 548 147 505 83 _c
461 19 399 -13 318 -13 _c
236 -13 173 19 130 83 _c
87 147 66 241 66 364 _c
66 486 87 580 130 645 _c
173 709 236 742 318 742 _c
_cl}_d
/one{636 0 110 0 544 729 _sc
124 83 _m
285 83 _l
285 639 _l
110 604 _l
110 694 _l
284 729 _l
383 729 _l
383 83 _l
544 83 _l
544 0 _l
124 0 _l
124 83 _l
_cl}_d
/two{{636 0 73 0 536 742 _sc
192 83 _m
536 83 _l
536 0 _l
73 0 _l
73 83 _l
110 121 161 173 226 239 _c
290 304 331 346 348 365 _c
380 400 402 430 414 455 _c
426 479 433 504 433 528 _c
433 566 419 598 392 622 _c
365 646 330 659 286 659 _c
255 659 222 653 188 643 _c
154 632 117 616 78 594 _c
78 694 _l
118 710 155 722 189 730 _c
223 738 255 742 284 742 _c
}_e{359 742 419 723 464 685 _c
509 647 532 597 532 534 _c
532 504 526 475 515 449 _c
504 422 484 390 454 354 _c
446 344 420 317 376 272 _c
332 227 271 164 192 83 _c
_cl}_e}_d
/three{{636 0 76 -13 556 742 _sc
406 393 _m
453 383 490 362 516 330 _c
542 298 556 258 556 212 _c
556 140 531 84 482 45 _c
432 6 362 -13 271 -13 _c
240 -13 208 -10 176 -4 _c
144 1 110 10 76 22 _c
76 117 _l
103 101 133 89 166 81 _c
198 73 232 69 268 69 _c
330 69 377 81 409 105 _c
441 129 458 165 458 212 _c
458 254 443 288 413 312 _c
383 336 341 349 287 349 _c
}_e{202 349 _l
202 430 _l
291 430 _l
339 430 376 439 402 459 _c
428 478 441 506 441 543 _c
441 580 427 609 401 629 _c
374 649 336 659 287 659 _c
260 659 231 656 200 650 _c
169 644 135 635 98 623 _c
98 711 _l
135 721 170 729 203 734 _c
235 739 266 742 296 742 _c
370 742 429 725 473 691 _c
517 657 539 611 539 553 _c
539 513 527 479 504 451 _c
481 423 448 403 406 393 _c
_cl}_e}_d
/four{636 0 49 0 580 729 _sc
378 643 _m
129 254 _l
378 254 _l
378 643 _l
352 729 _m
476 729 _l
476 254 _l
580 254 _l
580 172 _l
476 172 _l
476 0 _l
378 0 _l
378 172 _l
49 172 _l
49 267 _l
352 729 _l
_cl}_d
/five{{636 0 77 -13 549 729 _sc
108 729 _m
495 729 _l
495 646 _l
198 646 _l
198 467 _l
212 472 227 476 241 478 _c
255 480 270 482 284 482 _c
365 482 429 459 477 415 _c
525 370 549 310 549 234 _c
549 155 524 94 475 51 _c
426 8 357 -13 269 -13 _c
238 -13 207 -10 175 -6 _c
143 -1 111 6 77 17 _c
77 116 _l
106 100 136 88 168 80 _c
199 72 232 69 267 69 _c
}_e{323 69 368 83 401 113 _c
433 143 450 183 450 234 _c
450 284 433 324 401 354 _c
368 384 323 399 267 399 _c
241 399 214 396 188 390 _c
162 384 135 375 108 363 _c
108 729 _l
_cl}_e}_d
/six{{636 0 70 -13 573 742 _sc
330 404 _m
286 404 251 388 225 358 _c
199 328 186 286 186 234 _c
186 181 199 139 225 109 _c
251 79 286 64 330 64 _c
374 64 409 79 435 109 _c
461 139 474 181 474 234 _c
474 286 461 328 435 358 _c
409 388 374 404 330 404 _c
526 713 _m
526 623 _l
501 635 476 644 451 650 _c
425 656 400 659 376 659 _c
310 659 260 637 226 593 _c
}_e{192 549 172 482 168 394 _c
187 422 211 444 240 459 _c
269 474 301 482 336 482 _c
409 482 467 459 509 415 _c
551 371 573 310 573 234 _c
573 159 550 99 506 54 _c
462 9 403 -13 330 -13 _c
246 -13 181 19 137 83 _c
92 147 70 241 70 364 _c
70 479 97 571 152 639 _c
206 707 280 742 372 742 _c
396 742 421 739 447 735 _c
472 730 498 723 526 713 _c
_cl}_e}_d
/seven{636 0 82 0 551 729 _sc
82 729 _m
551 729 _l
551 687 _l
286 0 _l
183 0 _l
432 646 _l
82 646 _l
82 729 _l
_cl}_d
/eight{{636 0 68 -13 568 742 _sc
318 346 _m
271 346 234 333 207 308 _c
180 283 167 249 167 205 _c
167 161 180 126 207 101 _c
234 76 271 64 318 64 _c
364 64 401 76 428 102 _c
455 127 469 161 469 205 _c
469 249 455 283 429 308 _c
402 333 365 346 318 346 _c
219 388 _m
177 398 144 418 120 447 _c
96 476 85 511 85 553 _c
85 611 105 657 147 691 _c
188 725 245 742 318 742 _c
}_e{390 742 447 725 489 691 _c
530 657 551 611 551 553 _c
551 511 539 476 515 447 _c
491 418 459 398 417 388 _c
464 377 501 355 528 323 _c
554 291 568 251 568 205 _c
568 134 546 80 503 43 _c
459 5 398 -13 318 -13 _c
237 -13 175 5 132 43 _c
89 80 68 134 68 205 _c
68 251 81 291 108 323 _c
134 355 171 377 219 388 _c
183 544 _m
183 506 194 476 218 455 _c
}_e{242 434 275 424 318 424 _c
360 424 393 434 417 455 _c
441 476 453 506 453 544 _c
453 582 441 611 417 632 _c
393 653 360 664 318 664 _c
275 664 242 653 218 632 _c
194 611 183 582 183 544 _c
_cl}_e}_d
/nine{{636 0 63 -13 566 742 _sc
110 15 _m
110 105 _l
134 93 159 84 185 78 _c
210 72 235 69 260 69 _c
324 69 374 90 408 134 _c
442 178 462 244 468 334 _c
448 306 424 284 396 269 _c
367 254 335 247 300 247 _c
226 247 168 269 126 313 _c
84 357 63 417 63 494 _c
63 568 85 628 129 674 _c
173 719 232 742 306 742 _c
390 742 455 709 499 645 _c
543 580 566 486 566 364 _c
}_e{566 248 538 157 484 89 _c
429 21 356 -13 264 -13 _c
239 -13 214 -10 189 -6 _c
163 -2 137 5 110 15 _c
306 324 _m
350 324 385 339 411 369 _c
437 399 450 441 450 494 _c
450 546 437 588 411 618 _c
385 648 350 664 306 664 _c
262 664 227 648 201 618 _c
175 588 162 546 162 494 _c
162 441 175 399 201 369 _c
227 339 262 324 306 324 _c
_cl}_e}_d
/equal{838 0 106 172 732 454 _sc
106 454 _m
732 454 _l
732 372 _l
106 372 _l
106 454 _l
106 255 _m
732 255 _l
732 172 _l
106 172 _l
106 255 _l
_cl}_d
/D{770 0 98 0 711 729 _sc
197 648 _m
197 81 _l
316 81 _l
416 81 490 103 537 149 _c
583 195 607 267 607 365 _c
607 463 583 534 537 580 _c
490 625 416 648 316 648 _c
197 648 _l
98 729 _m
301 729 _l
442 729 546 699 612 641 _c
678 582 711 490 711 365 _c
711 239 677 147 611 88 _c
545 29 441 0 301 0 _c
98 0 _l
98 729 _l
_cl}_d
/I{295 0 98 0 197 729 _sc
98 729 _m
197 729 _l
197 0 _l
98 0 _l
98 729 _l
_cl}_d
/M{863 0 98 0 765 729 _sc
98 729 _m
245 729 _l
431 233 _l
618 729 _l
765 729 _l
765 0 _l
669 0 _l
669 640 _l
481 140 _l
382 140 _l
194 640 _l
194 0 _l
98 0 _l
98 729 _l
_cl}_d
/N{748 0 98 0 650 729 _sc
98 729 _m
231 729 _l
554 119 _l
554 729 _l
650 729 _l
650 0 _l
517 0 _l
194 610 _l
194 0 _l
98 0 _l
98 729 _l
_cl}_d
/T{611 0 -2 0 614 729 _sc
-2 729 _m
614 729 _l
614 646 _l
355 646 _l
355 0 _l
256 0 _l
256 646 _l
-2 646 _l
-2 729 _l
_cl}_d
/a{{613 0 60 -13 522 560 _sc
343 275 _m
270 275 220 266 192 250 _c
164 233 150 205 150 165 _c
150 133 160 107 181 89 _c
202 70 231 61 267 61 _c
317 61 357 78 387 114 _c
417 149 432 196 432 255 _c
432 275 _l
343 275 _l
522 312 _m
522 0 _l
432 0 _l
432 83 _l
411 49 385 25 355 10 _c
325 -5 287 -13 243 -13 _c
187 -13 142 2 109 33 _c
76 64 60 106 60 159 _c
}_e{60 220 80 266 122 298 _c
163 329 224 345 306 345 _c
432 345 _l
432 354 _l
432 395 418 427 391 450 _c
364 472 326 484 277 484 _c
245 484 215 480 185 472 _c
155 464 127 453 100 439 _c
100 522 _l
132 534 164 544 195 550 _c
226 556 256 560 286 560 _c
365 560 424 539 463 498 _c
502 457 522 395 522 312 _c
_cl}_e}_d
/b{{635 0 91 -13 580 760 _sc
487 273 _m
487 339 473 390 446 428 _c
418 466 381 485 334 485 _c
286 485 249 466 222 428 _c
194 390 181 339 181 273 _c
181 207 194 155 222 117 _c
249 79 286 61 334 61 _c
381 61 418 79 446 117 _c
473 155 487 207 487 273 _c
181 464 _m
199 496 223 520 252 536 _c
281 552 316 560 356 560 _c
422 560 476 533 518 481 _c
559 428 580 359 580 273 _c
}_e{580 187 559 117 518 65 _c
476 13 422 -13 356 -13 _c
316 -13 281 -5 252 10 _c
223 25 199 49 181 82 _c
181 0 _l
91 0 _l
91 760 _l
181 760 _l
181 464 _l
_cl}_e}_d
/c{{550 0 55 -13 488 560 _sc
488 526 _m
488 442 _l
462 456 437 466 411 473 _c
385 480 360 484 334 484 _c
276 484 230 465 198 428 _c
166 391 150 339 150 273 _c
150 206 166 154 198 117 _c
230 80 276 62 334 62 _c
360 62 385 65 411 72 _c
437 79 462 90 488 104 _c
488 21 _l
462 9 436 0 410 -5 _c
383 -10 354 -13 324 -13 _c
242 -13 176 12 128 64 _c
}_e{79 115 55 185 55 273 _c
55 362 79 432 128 483 _c
177 534 244 560 330 560 _c
358 560 385 557 411 551 _c
437 545 463 537 488 526 _c
_cl}_e}_d
/d{{635 0 55 -13 544 760 _sc
454 464 _m
454 760 _l
544 760 _l
544 0 _l
454 0 _l
454 82 _l
435 49 411 25 382 10 _c
353 -5 319 -13 279 -13 _c
213 -13 159 13 117 65 _c
75 117 55 187 55 273 _c
55 359 75 428 117 481 _c
159 533 213 560 279 560 _c
319 560 353 552 382 536 _c
411 520 435 496 454 464 _c
148 273 _m
148 207 161 155 188 117 _c
215 79 253 61 301 61 _c
}_e{348 61 385 79 413 117 _c
440 155 454 207 454 273 _c
454 339 440 390 413 428 _c
385 466 348 485 301 485 _c
253 485 215 466 188 428 _c
161 390 148 339 148 273 _c
_cl}_e}_d
/e{{615 0 55 -13 562 560 _sc
562 296 _m
562 252 _l
149 252 _l
153 190 171 142 205 110 _c
238 78 284 62 344 62 _c
378 62 412 66 444 74 _c
476 82 509 95 541 113 _c
541 28 _l
509 14 476 3 442 -3 _c
408 -9 373 -13 339 -13 _c
251 -13 182 12 131 62 _c
80 112 55 181 55 268 _c
55 357 79 428 127 481 _c
175 533 241 560 323 560 _c
397 560 455 536 498 489 _c
}_e{540 441 562 377 562 296 _c
472 322 _m
471 371 457 410 431 440 _c
404 469 368 484 324 484 _c
274 484 234 469 204 441 _c
174 413 156 373 152 322 _c
472 322 _l
_cl}_e}_d
/f{352 0 23 0 371 760 _sc
371 760 _m
371 685 _l
285 685 _l
253 685 230 678 218 665 _c
205 652 199 629 199 595 _c
199 547 _l
347 547 _l
347 477 _l
199 477 _l
199 0 _l
109 0 _l
109 477 _l
23 477 _l
23 547 _l
109 547 _l
109 585 _l
109 645 123 690 151 718 _c
179 746 224 760 286 760 _c
371 760 _l
_cl}_d
/g{{635 0 55 -207 544 560 _sc
454 280 _m
454 344 440 395 414 431 _c
387 467 349 485 301 485 _c
253 485 215 467 188 431 _c
161 395 148 344 148 280 _c
148 215 161 165 188 129 _c
215 93 253 75 301 75 _c
349 75 387 93 414 129 _c
440 165 454 215 454 280 _c
544 68 _m
544 -24 523 -93 482 -139 _c
440 -184 377 -207 292 -207 _c
260 -207 231 -204 203 -200 _c
175 -195 147 -188 121 -178 _c
}_e{121 -91 _l
147 -105 173 -115 199 -122 _c
225 -129 251 -133 278 -133 _c
336 -133 380 -117 410 -87 _c
439 -56 454 -10 454 52 _c
454 96 _l
435 64 411 40 382 24 _c
353 8 319 0 279 0 _c
211 0 157 25 116 76 _c
75 127 55 195 55 280 _c
55 364 75 432 116 483 _c
157 534 211 560 279 560 _c
319 560 353 552 382 536 _c
411 520 435 496 454 464 _c
454 547 _l
544 547 _l
}_e{544 68 _l
_cl}_e}_d
/h{634 0 91 0 549 760 _sc
549 330 _m
549 0 _l
459 0 _l
459 327 _l
459 379 448 417 428 443 _c
408 469 378 482 338 482 _c
289 482 251 466 223 435 _c
195 404 181 362 181 309 _c
181 0 _l
91 0 _l
91 760 _l
181 760 _l
181 462 _l
202 494 227 519 257 535 _c
286 551 320 560 358 560 _c
420 560 468 540 500 501 _c
532 462 549 405 549 330 _c
_cl}_d
/i{278 0 94 0 184 760 _sc
94 547 _m
184 547 _l
184 0 _l
94 0 _l
94 547 _l
94 760 _m
184 760 _l
184 646 _l
94 646 _l
94 760 _l
_cl}_d
/l{278 0 94 0 184 760 _sc
94 760 _m
184 760 _l
184 0 _l
94 0 _l
94 760 _l
_cl}_d
/m{{974 0 91 0 889 560 _sc
520 442 _m
542 482 569 511 600 531 _c
631 550 668 560 711 560 _c
767 560 811 540 842 500 _c
873 460 889 403 889 330 _c
889 0 _l
799 0 _l
799 327 _l
799 379 789 418 771 444 _c
752 469 724 482 686 482 _c
639 482 602 466 575 435 _c
548 404 535 362 535 309 _c
535 0 _l
445 0 _l
445 327 _l
445 379 435 418 417 444 _c
398 469 369 482 331 482 _c
}_e{285 482 248 466 221 435 _c
194 404 181 362 181 309 _c
181 0 _l
91 0 _l
91 547 _l
181 547 _l
181 462 _l
201 495 226 520 255 536 _c
283 552 317 560 357 560 _c
397 560 430 550 458 530 _c
486 510 506 480 520 442 _c
_cl}_e}_d
/n{634 0 91 0 549 560 _sc
549 330 _m
549 0 _l
459 0 _l
459 327 _l
459 379 448 417 428 443 _c
408 469 378 482 338 482 _c
289 482 251 466 223 435 _c
195 404 181 362 181 309 _c
181 0 _l
91 0 _l
91 547 _l
181 547 _l
181 462 _l
202 494 227 519 257 535 _c
286 551 320 560 358 560 _c
420 560 468 540 500 501 _c
532 462 549 405 549 330 _c
_cl}_d
/o{612 0 55 -13 557 560 _sc
306 484 _m
258 484 220 465 192 427 _c
164 389 150 338 150 273 _c
150 207 163 156 191 118 _c
219 80 257 62 306 62 _c
354 62 392 80 420 118 _c
448 156 462 207 462 273 _c
462 337 448 389 420 427 _c
392 465 354 484 306 484 _c
306 560 _m
384 560 445 534 490 484 _c
534 433 557 363 557 273 _c
557 183 534 113 490 63 _c
445 12 384 -13 306 -13 _c
227 -13 165 12 121 63 _c
77 113 55 183 55 273 _c
55 363 77 433 121 484 _c
165 534 227 560 306 560 _c
_cl}_d
/p{{635 0 91 -207 580 560 _sc
181 82 _m
181 -207 _l
91 -207 _l
91 547 _l
181 547 _l
181 464 _l
199 496 223 520 252 536 _c
281 552 316 560 356 560 _c
422 560 476 533 518 481 _c
559 428 580 359 580 273 _c
580 187 559 117 518 65 _c
476 13 422 -13 356 -13 _c
316 -13 281 -5 252 10 _c
223 25 199 49 181 82 _c
487 273 _m
487 339 473 390 446 428 _c
418 466 381 485 334 485 _c
}_e{286 485 249 466 222 428 _c
194 390 181 339 181 273 _c
181 207 194 155 222 117 _c
249 79 286 61 334 61 _c
381 61 418 79 446 117 _c
473 155 487 207 487 273 _c
_cl}_e}_d
/q{{635 0 55 -207 544 560 _sc
148 273 _m
148 207 161 155 188 117 _c
215 79 253 61 301 61 _c
348 61 385 79 413 117 _c
440 155 454 207 454 273 _c
454 339 440 390 413 428 _c
385 466 348 485 301 485 _c
253 485 215 466 188 428 _c
161 390 148 339 148 273 _c
454 82 _m
435 49 411 25 382 10 _c
353 -5 319 -13 279 -13 _c
213 -13 159 13 117 65 _c
75 117 55 187 55 273 _c
}_e{55 359 75 428 117 481 _c
159 533 213 560 279 560 _c
319 560 353 552 382 536 _c
411 520 435 496 454 464 _c
454 547 _l
544 547 _l
544 -207 _l
454 -207 _l
454 82 _l
_cl}_e}_d
/r{411 0 91 0 411 560 _sc
411 463 _m
401 469 390 473 378 476 _c
366 478 353 480 339 480 _c
288 480 249 463 222 430 _c
194 397 181 350 181 288 _c
181 0 _l
91 0 _l
91 547 _l
181 547 _l
181 462 _l
199 495 224 520 254 536 _c
284 552 321 560 365 560 _c
371 560 378 559 386 559 _c
393 558 401 557 411 555 _c
411 463 _l
_cl}_d
/s{{521 0 54 -13 472 560 _sc
443 531 _m
443 446 _l
417 458 391 468 364 475 _c
336 481 308 485 279 485 _c
234 485 200 478 178 464 _c
156 450 145 430 145 403 _c
145 382 153 366 169 354 _c
185 342 217 330 265 320 _c
296 313 _l
360 299 405 279 432 255 _c
458 230 472 195 472 151 _c
472 100 452 60 412 31 _c
372 1 316 -13 246 -13 _c
216 -13 186 -10 154 -5 _c
}_e{122 0 89 8 54 20 _c
54 113 _l
87 95 120 82 152 74 _c
184 65 216 61 248 61 _c
290 61 323 68 346 82 _c
368 96 380 117 380 144 _c
380 168 371 187 355 200 _c
339 213 303 226 247 238 _c
216 245 _l
160 257 119 275 95 299 _c
70 323 58 356 58 399 _c
58 450 76 490 112 518 _c
148 546 200 560 268 560 _c
301 560 332 557 362 552 _c
391 547 418 540 443 531 _c
}_e{_cl}_e}_d
/t{392 0 27 0 368 702 _sc
183 702 _m
183 547 _l
368 547 _l
368 477 _l
183 477 _l
183 180 _l
183 135 189 106 201 94 _c
213 81 238 75 276 75 _c
368 75 _l
368 0 _l
276 0 _l
206 0 158 13 132 39 _c
106 65 93 112 93 180 _c
93 477 _l
27 477 _l
27 547 _l
93 547 _l
93 702 _l
183 702 _l
_cl}_d
/u{634 0 85 -13 543 560 _sc
85 216 _m
85 547 _l
175 547 _l
175 219 _l
175 167 185 129 205 103 _c
225 77 255 64 296 64 _c
344 64 383 79 411 110 _c
439 141 453 183 453 237 _c
453 547 _l
543 547 _l
543 0 _l
453 0 _l
453 84 _l
431 50 405 26 377 10 _c
348 -5 315 -13 277 -13 _c
214 -13 166 6 134 45 _c
101 83 85 140 85 216 _c
311 560 _m
311 560 _l
_cl}_d
/y{592 0 30 -207 562 547 _sc
322 -50 _m
296 -114 271 -157 247 -177 _c
223 -197 191 -207 151 -207 _c
79 -207 _l
79 -132 _l
132 -132 _l
156 -132 175 -126 189 -114 _c
203 -102 218 -75 235 -31 _c
251 9 _l
30 547 _l
125 547 _l
296 119 _l
467 547 _l
562 547 _l
322 -50 _l
_cl}_d
end readonly def

/BuildGlyph
 {exch begin
 CharStrings exch
 2 copy known not{pop /.notdef}if
 true 3 1 roll get exec
 end}_d

/BuildChar {
 1 index /Encoding get exch get
 1 index /BuildGlyph get exec
}_d

FontName currentdict end definefont pop
%!PS-Adobe-3.0 Resource-Font
%%Title: DejaVu Sans Oblique
%%Copyright: Copyright (c) 2003 by Bitstream, Inc. All Rights Reserved. Copyright (c) 2006 by Tavmjong Bah. All Rights Reserved. DejaVu changes are in public domain 
%%Creator: Converted from TrueType to type 3 by PPR
25 dict begin
/_d{bind def}bind def
/_m{moveto}_d
/_l{lineto}_d
/_cl{closepath eofill}_d
/_c{curveto}_d
/_sc{7 -1 roll{setcachedevice}{pop pop pop pop pop pop}ifelse}_d
/_e{exec}_d
/FontName /DejaVuSans-Oblique def
/PaintType 0 def
/FontMatrix[.001 0 0 .001 0 0]def
/FontBBox[-1016 -350 1659 1068]def
/FontType 3 def
/Encoding [ /n /alpha /beta /delta ] def
/FontInfo 10 dict dup begin
/FamilyName (DejaVu Sans) def
/FullName (DejaVu Sans Oblique) def
/Notice (Copyright (c) 2003 by Bitstream, Inc. All Rights Reserved. Copyright (c) 2006 by Tavmjong Bah. All Rights Reserved. DejaVu changes are in public domain ) def
/Weight (Oblique) def
/Version (Version 2.35) def
/ItalicAngle -11.0 def
/isFixedPitch false def
/UnderlinePosition -130 def
/UnderlineThickness 90 def
end readonly def
/CharStrings 5 dict dup begin
/.notdef 0 def
/n{{634 0 35 0 566 560 _sc
557 330 _m
493 0 _l
403 0 _l
467 327 _l
469 342 471 355 473 367 _c
475 379 476 388 476 395 _c
476 422 467 443 450 459 _c
432 474 408 482 378 482 _c
330 482 288 466 253 434 _c
218 402 195 358 185 303 _c
125 0 _l
35 0 _l
141 547 _l
231 547 _l
213 461 _l
237 492 267 516 303 534 _c
338 551 375 560 414 560 _c
462 560 499 547 526 521 _c
}_e{552 495 566 458 566 411 _c
566 399 565 387 564 374 _c
562 360 560 346 557 330 _c
_cl}_e}_d
/alpha{{659 0 55 -11 645 559 _sc
409 254 _m
410 367 _l
410 443 381 482 323 483 _c
279 483 244 465 218 429 _c
184 384 161 332 150 273 _c
136 201 137 148 155 114 _c
173 79 202 62 242 62 _c
285 62 325 96 362 166 _c
409 254 _l
338 559 _m
440 561 490 509 489 404 _c
489 404 514 451 565 547 _c
645 547 _l
487 250 _l
486 144 _l
486 128 490 113 499 100 _c
509 84 519 76 530 76 _c
}_e{573 76 _l
559 0 _l
504 0 _l
473 0 447 13 425 41 _c
415 55 409 76 409 104 _c
387 69 359 37 323 8 _c
305 -5 273 -11 227 -11 _c
151 -10 99 14 71 62 _c
43 112 37 183 55 273 _c
73 369 108 440 158 484 _c
213 533 273 558 338 559 _c
_cl}_e}_d
/beta{{638 0 0 -207 572 766 _sc
136 34 _m
89 -207 _l
0 -207 _l
145 543 _l
173 691 257 766 396 766 _c
536 766 595 703 572 578 _c
555 488 515 428 452 396 _c
537 366 571 308 555 221 _c
525 67 432 -9 275 -9 _c
205 -9 159 5 136 34 _c
159 151 _m
184 94 229 66 293 66 _c
387 66 443 117 463 220 _c
481 311 414 353 262 347 _c
278 430 _l
396 428 465 480 485 586 _c
}_e{499 657 468 693 392 693 _c
306 693 254 642 235 541 _c
159 151 _l
_cl}_e}_d
/delta{{612 0 38 -13 557 742 _sc
542 633 _m
514 655 461 667 383 667 _c
300 667 255 648 248 610 _c
242 580 280 557 364 542 _c
428 530 476 505 508 469 _c
546 425 556 358 539 268 _c
521 182 486 113 432 63 _c
377 12 310 -13 232 -13 _c
154 -13 98 12 63 63 _c
28 113 20 183 38 273 _c
50 339 84 399 139 453 _c
160 473 184 490 211 502 _c
165 528 147 563 156 609 _c
}_e{173 697 253 742 397 742 _c
469 742 522 730 557 708 _c
542 633 _l
274 478 _m
250 468 226 451 204 428 _c
168 391 144 339 132 273 _c
119 207 123 155 144 118 _c
164 80 199 62 248 62 _c
295 62 336 81 372 119 _c
407 156 431 206 443 268 _c
455 332 450 380 427 412 _c
401 445 369 464 329 468 _c
308 470 290 473 274 478 _c
_cl}_e}_d
end readonly def

/BuildGlyph
 {exch begin
 CharStrings exch
 2 copy known not{pop /.notdef}if
 true 3 1 roll get exec
 end}_d

/BuildChar {
 1 index /Encoding get exch get
 1 index /BuildGlyph get exec
}_d

FontName currentdict end definefont pop
end
%%EndProlog
mpldict begin
-270 -180 translate
1152 1152 0 0 clipbox
gsave
0 0 m
1152 0 l
1152 1152 l
0 1152 l
cl
1.000 setgray
fill
grestore
gsave
144 126.72 m
1036.8 126.72 l
1036.8 1013.76 l
144 1013.76 l
cl
1.000 setgray
fill
grestore
0.800 setlinewidth
1 setlinejoin
2 setlinecap
[] 0 setdash
0.000 setgray
gsave
892.8 887 144 126.7 clipbox
144 126.72 m
144 1013.76 l
stroke
grestore
0 setlinecap
gsave
/o {
gsave
newpath
translate
0.8 setlinewidth
1 setlinejoin
0 setlinecap
0 0 m
0 -3.5 l

gsave
0.000 setgray
fill
grestore
stroke
grestore
} bind def
144 126.72 o
grestore
/DejaVuSans findfont
10.000 scalefont
setfont
gsave
136.046875 112.126250 translate
0.000000 rotate
0.000000 0.000000 m /zero glyphshow
6.362305 0.000000 m /period glyphshow
9.541016 0.000000 m /zero glyphshow
grestore
2 setlinecap
gsave
892.8 887 144 126.7 clipbox
233.28 126.72 m
233.28 1013.76 l
stroke
grestore
0 setlinecap
gsave
/o {
gsave
newpath
translate
0.8 setlinewidth
1 setlinejoin
0 setlinecap
0 0 m
0 -3.5 l

gsave
0.000 setgray
fill
grestore
stroke
grestore
} bind def
233.28 126.72 o
grestore
gsave
225.326875 112.126250 translate
0.000000 rotate
0.000000 0.000000 m /zero glyphshow
6.362305 0.000000 m /period glyphshow
9.541016 0.000000 m /one glyphshow
grestore
2 setlinecap
gsave
892.8 887 144 126.7 clipbox
322.56 126.72 m
322.56 1013.76 l
stroke
grestore
0 setlinecap
gsave
/o {
gsave
newpath
translate
0.8 setlinewidth
1 setlinejoin
0 setlinecap
0 0 m
0 -3.5 l

gsave
0.000 setgray
fill
grestore
stroke
grestore
} bind def
322.56 126.72 o
grestore
gsave
314.606875 112.126250 translate
0.000000 rotate
0.000000 0.000000 m /zero glyphshow
6.362305 0.000000 m /period glyphshow
9.541016 0.000000 m /two glyphshow
grestore
2 setlinecap
gsave
892.8 887 144 126.7 clipbox
411.84 126.72 m
411.84 1013.76 l
stroke
grestore
0 setlinecap
gsave
/o {
gsave
newpath
translate
0.8 setlinewidth
1 setlinejoin
0 setlinecap
0 0 m
0 -3.5 l

gsave
0.000 setgray
fill
grestore
stroke
grestore
} bind def
411.84 126.72 o
grestore
gsave
403.886875 112.126250 translate
0.000000 rotate
0.000000 0.000000 m /zero glyphshow
6.362305 0.000000 m /period glyphshow
9.541016 0.000000 m /three glyphshow
grestore
2 setlinecap
gsave
892.8 887 144 126.7 clipbox
501.12 126.72 m
501.12 1013.76 l
stroke
grestore
0 setlinecap
gsave
/o {
gsave
newpath
translate
0.8 setlinewidth
1 setlinejoin
0 setlinecap
0 0 m
0 -3.5 l

gsave
0.000 setgray
fill
grestore
stroke
grestore
} bind def
501.12 126.72 o
grestore
gsave
493.166875 112.126250 translate
0.000000 rotate
0.000000 0.000000 m /zero glyphshow
6.362305 0.000000 m /period glyphshow
9.541016 0.000000 m /four glyphshow
grestore
2 setlinecap
gsave
892.8 887 144 126.7 clipbox
590.4 126.72 m
590.4 1013.76 l
stroke
grestore
0 setlinecap
gsave
/o {
gsave
newpath
translate
0.8 setlinewidth
1 setlinejoin
0 setlinecap
0 0 m
0 -3.5 l

gsave
0.000 setgray
fill
grestore
stroke
grestore
} bind def
590.4 126.72 o
grestore
gsave
582.446875 112.126250 translate
0.000000 rotate
0.000000 0.000000 m /zero glyphshow
6.362305 0.000000 m /period glyphshow
9.541016 0.000000 m /five glyphshow
grestore
2 setlinecap
gsave
892.8 887 144 126.7 clipbox
679.68 126.72 m
679.68 1013.76 l
stroke
grestore
0 setlinecap
gsave
/o {
gsave
newpath
translate
0.8 setlinewidth
1 setlinejoin
0 setlinecap
0 0 m
0 -3.5 l

gsave
0.000 setgray
fill
grestore
stroke
grestore
} bind def
679.68 126.72 o
grestore
gsave
671.726875 112.126250 translate
0.000000 rotate
0.000000 0.000000 m /zero glyphshow
6.362305 0.000000 m /period glyphshow
9.541016 0.000000 m /six glyphshow
grestore
2 setlinecap
gsave
892.8 887 144 126.7 clipbox
768.96 126.72 m
768.96 1013.76 l
stroke
grestore
0 setlinecap
gsave
/o {
gsave
newpath
translate
0.8 setlinewidth
1 setlinejoin
0 setlinecap
0 0 m
0 -3.5 l

gsave
0.000 setgray
fill
grestore
stroke
grestore
} bind def
768.96 126.72 o
grestore
gsave
761.006875 112.126250 translate
0.000000 rotate
0.000000 0.000000 m /zero glyphshow
6.362305 0.000000 m /period glyphshow
9.541016 0.000000 m /seven glyphshow
grestore
2 setlinecap
gsave
892.8 887 144 126.7 clipbox
858.24 126.72 m
858.24 1013.76 l
stroke
grestore
0 setlinecap
gsave
/o {
gsave
newpath
translate
0.8 setlinewidth
1 setlinejoin
0 setlinecap
0 0 m
0 -3.5 l

gsave
0.000 setgray
fill
grestore
stroke
grestore
} bind def
858.24 126.72 o
grestore
gsave
850.286875 112.126250 translate
0.000000 rotate
0.000000 0.000000 m /zero glyphshow
6.362305 0.000000 m /period glyphshow
9.541016 0.000000 m /eight glyphshow
grestore
2 setlinecap
gsave
892.8 887 144 126.7 clipbox
947.52 126.72 m
947.52 1013.76 l
stroke
grestore
0 setlinecap
gsave
/o {
gsave
newpath
translate
0.8 setlinewidth
1 setlinejoin
0 setlinecap
0 0 m
0 -3.5 l

gsave
0.000 setgray
fill
grestore
stroke
grestore
} bind def
947.52 126.72 o
grestore
gsave
939.566875 112.126250 translate
0.000000 rotate
0.000000 0.000000 m /zero glyphshow
6.362305 0.000000 m /period glyphshow
9.541016 0.000000 m /nine glyphshow
grestore
[2.96 1.28] 0 setdash
0.690 setgray
gsave
892.8 887 144 126.7 clipbox
144 126.72 m
144 1013.76 l
stroke
grestore
0.600 setlinewidth
[] 0 setdash
0.000 setgray
gsave
/o {
gsave
newpath
translate
0.6 setlinewidth
1 setlinejoin
0 setlinecap
0 0 m
0 -2 l

gsave
0.000 setgray
fill
grestore
stroke
grestore
} bind def
144 126.72 o
grestore
0.800 setlinewidth
[2.96 1.28] 0 setdash
0.690 setgray
gsave
892.8 887 144 126.7 clipbox
152.928 126.72 m
152.928 1013.76 l
stroke
grestore
0.600 setlinewidth
[] 0 setdash
0.000 setgray
gsave
/o {
gsave
newpath
translate
0.6 setlinewidth
1 setlinejoin
0 setlinecap
0 0 m
0 -2 l

gsave
0.000 setgray
fill
grestore
stroke
grestore
} bind def
152.928 126.72 o
grestore
0.800 setlinewidth
[2.96 1.28] 0 setdash
0.690 setgray
gsave
892.8 887 144 126.7 clipbox
161.856 126.72 m
161.856 1013.76 l
stroke
grestore
0.600 setlinewidth
[] 0 setdash
0.000 setgray
gsave
/o {
gsave
newpath
translate
0.6 setlinewidth
1 setlinejoin
0 setlinecap
0 0 m
0 -2 l

gsave
0.000 setgray
fill
grestore
stroke
grestore
} bind def
161.856 126.72 o
grestore
0.800 setlinewidth
[2.96 1.28] 0 setdash
0.690 setgray
gsave
892.8 887 144 126.7 clipbox
170.784 126.72 m
170.784 1013.76 l
stroke
grestore
0.600 setlinewidth
[] 0 setdash
0.000 setgray
gsave
/o {
gsave
newpath
translate
0.6 setlinewidth
1 setlinejoin
0 setlinecap
0 0 m
0 -2 l

gsave
0.000 setgray
fill
grestore
stroke
grestore
} bind def
170.784 126.72 o
grestore
0.800 setlinewidth
[2.96 1.28] 0 setdash
0.690 setgray
gsave
892.8 887 144 126.7 clipbox
179.712 126.72 m
179.712 1013.76 l
stroke
grestore
0.600 setlinewidth
[] 0 setdash
0.000 setgray
gsave
/o {
gsave
newpath
translate
0.6 setlinewidth
1 setlinejoin
0 setlinecap
0 0 m
0 -2 l

gsave
0.000 setgray
fill
grestore
stroke
grestore
} bind def
179.712 126.72 o
grestore
0.800 setlinewidth
[2.96 1.28] 0 setdash
0.690 setgray
gsave
892.8 887 144 126.7 clipbox
188.64 126.72 m
188.64 1013.76 l
stroke
grestore
0.600 setlinewidth
[] 0 setdash
0.000 setgray
gsave
/o {
gsave
newpath
translate
0.6 setlinewidth
1 setlinejoin
0 setlinecap
0 0 m
0 -2 l

gsave
0.000 setgray
fill
grestore
stroke
grestore
} bind def
188.64 126.72 o
grestore
0.800 setlinewidth
[2.96 1.28] 0 setdash
0.690 setgray
gsave
892.8 887 144 126.7 clipbox
197.568 126.72 m
197.568 1013.76 l
stroke
grestore
0.600 setlinewidth
[] 0 setdash
0.000 setgray
gsave
/o {
gsave
newpath
translate
0.6 setlinewidth
1 setlinejoin
0 setlinecap
0 0 m
0 -2 l

gsave
0.000 setgray
fill
grestore
stroke
grestore
} bind def
197.568 126.72 o
grestore
0.800 setlinewidth
[2.96 1.28] 0 setdash
0.690 setgray
gsave
892.8 887 144 126.7 clipbox
206.496 126.72 m
206.496 1013.76 l
stroke
grestore
0.600 setlinewidth
[] 0 setdash
0.000 setgray
gsave
/o {
gsave
newpath
translate
0.6 setlinewidth
1 setlinejoin
0 setlinecap
0 0 m
0 -2 l

gsave
0.000 setgray
fill
grestore
stroke
grestore
} bind def
206.496 126.72 o
grestore
0.800 setlinewidth
[2.96 1.28] 0 setdash
0.690 setgray
gsave
892.8 887 144 126.7 clipbox
215.424 126.72 m
215.424 1013.76 l
stroke
grestore
0.600 setlinewidth
[] 0 setdash
0.000 setgray
gsave
/o {
gsave
newpath
translate
0.6 setlinewidth
1 setlinejoin
0 setlinecap
0 0 m
0 -2 l

gsave
0.000 setgray
fill
grestore
stroke
grestore
} bind def
215.424 126.72 o
grestore
0.800 setlinewidth
[2.96 1.28] 0 setdash
0.690 setgray
gsave
892.8 887 144 126.7 clipbox
224.352 126.72 m
224.352 1013.76 l
stroke
grestore
0.600 setlinewidth
[] 0 setdash
0.000 setgray
gsave
/o {
gsave
newpath
translate
0.6 setlinewidth
1 setlinejoin
0 setlinecap
0 0 m
0 -2 l

gsave
0.000 setgray
fill
grestore
stroke
grestore
} bind def
224.352 126.72 o
grestore
0.800 setlinewidth
[2.96 1.28] 0 setdash
0.690 setgray
gsave
892.8 887 144 126.7 clipbox
233.28 126.72 m
233.28 1013.76 l
stroke
grestore
0.600 setlinewidth
[] 0 setdash
0.000 setgray
gsave
/o {
gsave
newpath
translate
0.6 setlinewidth
1 setlinejoin
0 setlinecap
0 0 m
0 -2 l

gsave
0.000 setgray
fill
grestore
stroke
grestore
} bind def
233.28 126.72 o
grestore
0.800 setlinewidth
[2.96 1.28] 0 setdash
0.690 setgray
gsave
892.8 887 144 126.7 clipbox
242.208 126.72 m
242.208 1013.76 l
stroke
grestore
0.600 setlinewidth
[] 0 setdash
0.000 setgray
gsave
/o {
gsave
newpath
translate
0.6 setlinewidth
1 setlinejoin
0 setlinecap
0 0 m
0 -2 l

gsave
0.000 setgray
fill
grestore
stroke
grestore
} bind def
242.208 126.72 o
grestore
0.800 setlinewidth
[2.96 1.28] 0 setdash
0.690 setgray
gsave
892.8 887 144 126.7 clipbox
251.136 126.72 m
251.136 1013.76 l
stroke
grestore
0.600 setlinewidth
[] 0 setdash
0.000 setgray
gsave
/o {
gsave
newpath
translate
0.6 setlinewidth
1 setlinejoin
0 setlinecap
0 0 m
0 -2 l

gsave
0.000 setgray
fill
grestore
stroke
grestore
} bind def
251.136 126.72 o
grestore
0.800 setlinewidth
[2.96 1.28] 0 setdash
0.690 setgray
gsave
892.8 887 144 126.7 clipbox
260.064 126.72 m
260.064 1013.76 l
stroke
grestore
0.600 setlinewidth
[] 0 setdash
0.000 setgray
gsave
/o {
gsave
newpath
translate
0.6 setlinewidth
1 setlinejoin
0 setlinecap
0 0 m
0 -2 l

gsave
0.000 setgray
fill
grestore
stroke
grestore
} bind def
260.064 126.72 o
grestore
0.800 setlinewidth
[2.96 1.28] 0 setdash
0.690 setgray
gsave
892.8 887 144 126.7 clipbox
268.992 126.72 m
268.992 1013.76 l
stroke
grestore
0.600 setlinewidth
[] 0 setdash
0.000 setgray
gsave
/o {
gsave
newpath
translate
0.6 setlinewidth
1 setlinejoin
0 setlinecap
0 0 m
0 -2 l

gsave
0.000 setgray
fill
grestore
stroke
grestore
} bind def
268.992 126.72 o
grestore
0.800 setlinewidth
[2.96 1.28] 0 setdash
0.690 setgray
gsave
892.8 887 144 126.7 clipbox
277.92 126.72 m
277.92 1013.76 l
stroke
grestore
0.600 setlinewidth
[] 0 setdash
0.000 setgray
gsave
/o {
gsave
newpath
translate
0.6 setlinewidth
1 setlinejoin
0 setlinecap
0 0 m
0 -2 l

gsave
0.000 setgray
fill
grestore
stroke
grestore
} bind def
277.92 126.72 o
grestore
0.800 setlinewidth
[2.96 1.28] 0 setdash
0.690 setgray
gsave
892.8 887 144 126.7 clipbox
286.848 126.72 m
286.848 1013.76 l
stroke
grestore
0.600 setlinewidth
[] 0 setdash
0.000 setgray
gsave
/o {
gsave
newpath
translate
0.6 setlinewidth
1 setlinejoin
0 setlinecap
0 0 m
0 -2 l

gsave
0.000 setgray
fill
grestore
stroke
grestore
} bind def
286.848 126.72 o
grestore
0.800 setlinewidth
[2.96 1.28] 0 setdash
0.690 setgray
gsave
892.8 887 144 126.7 clipbox
295.776 126.72 m
295.776 1013.76 l
stroke
grestore
0.600 setlinewidth
[] 0 setdash
0.000 setgray
gsave
/o {
gsave
newpath
translate
0.6 setlinewidth
1 setlinejoin
0 setlinecap
0 0 m
0 -2 l

gsave
0.000 setgray
fill
grestore
stroke
grestore
} bind def
295.776 126.72 o
grestore
0.800 setlinewidth
[2.96 1.28] 0 setdash
0.690 setgray
gsave
892.8 887 144 126.7 clipbox
304.704 126.72 m
304.704 1013.76 l
stroke
grestore
0.600 setlinewidth
[] 0 setdash
0.000 setgray
gsave
/o {
gsave
newpath
translate
0.6 setlinewidth
1 setlinejoin
0 setlinecap
0 0 m
0 -2 l

gsave
0.000 setgray
fill
grestore
stroke
grestore
} bind def
304.704 126.72 o
grestore
0.800 setlinewidth
[2.96 1.28] 0 setdash
0.690 setgray
gsave
892.8 887 144 126.7 clipbox
313.632 126.72 m
313.632 1013.76 l
stroke
grestore
0.600 setlinewidth
[] 0 setdash
0.000 setgray
gsave
/o {
gsave
newpath
translate
0.6 setlinewidth
1 setlinejoin
0 setlinecap
0 0 m
0 -2 l

gsave
0.000 setgray
fill
grestore
stroke
grestore
} bind def
313.632 126.72 o
grestore
0.800 setlinewidth
[2.96 1.28] 0 setdash
0.690 setgray
gsave
892.8 887 144 126.7 clipbox
322.56 126.72 m
322.56 1013.76 l
stroke
grestore
0.600 setlinewidth
[] 0 setdash
0.000 setgray
gsave
/o {
gsave
newpath
translate
0.6 setlinewidth
1 setlinejoin
0 setlinecap
0 0 m
0 -2 l

gsave
0.000 setgray
fill
grestore
stroke
grestore
} bind def
322.56 126.72 o
grestore
0.800 setlinewidth
[2.96 1.28] 0 setdash
0.690 setgray
gsave
892.8 887 144 126.7 clipbox
331.488 126.72 m
331.488 1013.76 l
stroke
grestore
0.600 setlinewidth
[] 0 setdash
0.000 setgray
gsave
/o {
gsave
newpath
translate
0.6 setlinewidth
1 setlinejoin
0 setlinecap
0 0 m
0 -2 l

gsave
0.000 setgray
fill
grestore
stroke
grestore
} bind def
331.488 126.72 o
grestore
0.800 setlinewidth
[2.96 1.28] 0 setdash
0.690 setgray
gsave
892.8 887 144 126.7 clipbox
340.416 126.72 m
340.416 1013.76 l
stroke
grestore
0.600 setlinewidth
[] 0 setdash
0.000 setgray
gsave
/o {
gsave
newpath
translate
0.6 setlinewidth
1 setlinejoin
0 setlinecap
0 0 m
0 -2 l

gsave
0.000 setgray
fill
grestore
stroke
grestore
} bind def
340.416 126.72 o
grestore
0.800 setlinewidth
[2.96 1.28] 0 setdash
0.690 setgray
gsave
892.8 887 144 126.7 clipbox
349.344 126.72 m
349.344 1013.76 l
stroke
grestore
0.600 setlinewidth
[] 0 setdash
0.000 setgray
gsave
/o {
gsave
newpath
translate
0.6 setlinewidth
1 setlinejoin
0 setlinecap
0 0 m
0 -2 l

gsave
0.000 setgray
fill
grestore
stroke
grestore
} bind def
349.344 126.72 o
grestore
0.800 setlinewidth
[2.96 1.28] 0 setdash
0.690 setgray
gsave
892.8 887 144 126.7 clipbox
358.272 126.72 m
358.272 1013.76 l
stroke
grestore
0.600 setlinewidth
[] 0 setdash
0.000 setgray
gsave
/o {
gsave
newpath
translate
0.6 setlinewidth
1 setlinejoin
0 setlinecap
0 0 m
0 -2 l

gsave
0.000 setgray
fill
grestore
stroke
grestore
} bind def
358.272 126.72 o
grestore
0.800 setlinewidth
[2.96 1.28] 0 setdash
0.690 setgray
gsave
892.8 887 144 126.7 clipbox
367.2 126.72 m
367.2 1013.76 l
stroke
grestore
0.600 setlinewidth
[] 0 setdash
0.000 setgray
gsave
/o {
gsave
newpath
translate
0.6 setlinewidth
1 setlinejoin
0 setlinecap
0 0 m
0 -2 l

gsave
0.000 setgray
fill
grestore
stroke
grestore
} bind def
367.2 126.72 o
grestore
0.800 setlinewidth
[2.96 1.28] 0 setdash
0.690 setgray
gsave
892.8 887 144 126.7 clipbox
376.128 126.72 m
376.128 1013.76 l
stroke
grestore
0.600 setlinewidth
[] 0 setdash
0.000 setgray
gsave
/o {
gsave
newpath
translate
0.6 setlinewidth
1 setlinejoin
0 setlinecap
0 0 m
0 -2 l

gsave
0.000 setgray
fill
grestore
stroke
grestore
} bind def
376.128 126.72 o
grestore
0.800 setlinewidth
[2.96 1.28] 0 setdash
0.690 setgray
gsave
892.8 887 144 126.7 clipbox
385.056 126.72 m
385.056 1013.76 l
stroke
grestore
0.600 setlinewidth
[] 0 setdash
0.000 setgray
gsave
/o {
gsave
newpath
translate
0.6 setlinewidth
1 setlinejoin
0 setlinecap
0 0 m
0 -2 l

gsave
0.000 setgray
fill
grestore
stroke
grestore
} bind def
385.056 126.72 o
grestore
0.800 setlinewidth
[2.96 1.28] 0 setdash
0.690 setgray
gsave
892.8 887 144 126.7 clipbox
393.984 126.72 m
393.984 1013.76 l
stroke
grestore
0.600 setlinewidth
[] 0 setdash
0.000 setgray
gsave
/o {
gsave
newpath
translate
0.6 setlinewidth
1 setlinejoin
0 setlinecap
0 0 m
0 -2 l

gsave
0.000 setgray
fill
grestore
stroke
grestore
} bind def
393.984 126.72 o
grestore
0.800 setlinewidth
[2.96 1.28] 0 setdash
0.690 setgray
gsave
892.8 887 144 126.7 clipbox
402.912 126.72 m
402.912 1013.76 l
stroke
grestore
0.600 setlinewidth
[] 0 setdash
0.000 setgray
gsave
/o {
gsave
newpath
translate
0.6 setlinewidth
1 setlinejoin
0 setlinecap
0 0 m
0 -2 l

gsave
0.000 setgray
fill
grestore
stroke
grestore
} bind def
402.912 126.72 o
grestore
0.800 setlinewidth
[2.96 1.28] 0 setdash
0.690 setgray
gsave
892.8 887 144 126.7 clipbox
411.84 126.72 m
411.84 1013.76 l
stroke
grestore
0.600 setlinewidth
[] 0 setdash
0.000 setgray
gsave
/o {
gsave
newpath
translate
0.6 setlinewidth
1 setlinejoin
0 setlinecap
0 0 m
0 -2 l

gsave
0.000 setgray
fill
grestore
stroke
grestore
} bind def
411.84 126.72 o
grestore
0.800 setlinewidth
[2.96 1.28] 0 setdash
0.690 setgray
gsave
892.8 887 144 126.7 clipbox
420.768 126.72 m
420.768 1013.76 l
stroke
grestore
0.600 setlinewidth
[] 0 setdash
0.000 setgray
gsave
/o {
gsave
newpath
translate
0.6 setlinewidth
1 setlinejoin
0 setlinecap
0 0 m
0 -2 l

gsave
0.000 setgray
fill
grestore
stroke
grestore
} bind def
420.768 126.72 o
grestore
0.800 setlinewidth
[2.96 1.28] 0 setdash
0.690 setgray
gsave
892.8 887 144 126.7 clipbox
429.696 126.72 m
429.696 1013.76 l
stroke
grestore
0.600 setlinewidth
[] 0 setdash
0.000 setgray
gsave
/o {
gsave
newpath
translate
0.6 setlinewidth
1 setlinejoin
0 setlinecap
0 0 m
0 -2 l

gsave
0.000 setgray
fill
grestore
stroke
grestore
} bind def
429.696 126.72 o
grestore
0.800 setlinewidth
[2.96 1.28] 0 setdash
0.690 setgray
gsave
892.8 887 144 126.7 clipbox
438.624 126.72 m
438.624 1013.76 l
stroke
grestore
0.600 setlinewidth
[] 0 setdash
0.000 setgray
gsave
/o {
gsave
newpath
translate
0.6 setlinewidth
1 setlinejoin
0 setlinecap
0 0 m
0 -2 l

gsave
0.000 setgray
fill
grestore
stroke
grestore
} bind def
438.624 126.72 o
grestore
0.800 setlinewidth
[2.96 1.28] 0 setdash
0.690 setgray
gsave
892.8 887 144 126.7 clipbox
447.552 126.72 m
447.552 1013.76 l
stroke
grestore
0.600 setlinewidth
[] 0 setdash
0.000 setgray
gsave
/o {
gsave
newpath
translate
0.6 setlinewidth
1 setlinejoin
0 setlinecap
0 0 m
0 -2 l

gsave
0.000 setgray
fill
grestore
stroke
grestore
} bind def
447.552 126.72 o
grestore
0.800 setlinewidth
[2.96 1.28] 0 setdash
0.690 setgray
gsave
892.8 887 144 126.7 clipbox
456.48 126.72 m
456.48 1013.76 l
stroke
grestore
0.600 setlinewidth
[] 0 setdash
0.000 setgray
gsave
/o {
gsave
newpath
translate
0.6 setlinewidth
1 setlinejoin
0 setlinecap
0 0 m
0 -2 l

gsave
0.000 setgray
fill
grestore
stroke
grestore
} bind def
456.48 126.72 o
grestore
0.800 setlinewidth
[2.96 1.28] 0 setdash
0.690 setgray
gsave
892.8 887 144 126.7 clipbox
465.408 126.72 m
465.408 1013.76 l
stroke
grestore
0.600 setlinewidth
[] 0 setdash
0.000 setgray
gsave
/o {
gsave
newpath
translate
0.6 setlinewidth
1 setlinejoin
0 setlinecap
0 0 m
0 -2 l

gsave
0.000 setgray
fill
grestore
stroke
grestore
} bind def
465.408 126.72 o
grestore
0.800 setlinewidth
[2.96 1.28] 0 setdash
0.690 setgray
gsave
892.8 887 144 126.7 clipbox
474.336 126.72 m
474.336 1013.76 l
stroke
grestore
0.600 setlinewidth
[] 0 setdash
0.000 setgray
gsave
/o {
gsave
newpath
translate
0.6 setlinewidth
1 setlinejoin
0 setlinecap
0 0 m
0 -2 l

gsave
0.000 setgray
fill
grestore
stroke
grestore
} bind def
474.336 126.72 o
grestore
0.800 setlinewidth
[2.96 1.28] 0 setdash
0.690 setgray
gsave
892.8 887 144 126.7 clipbox
483.264 126.72 m
483.264 1013.76 l
stroke
grestore
0.600 setlinewidth
[] 0 setdash
0.000 setgray
gsave
/o {
gsave
newpath
translate
0.6 setlinewidth
1 setlinejoin
0 setlinecap
0 0 m
0 -2 l

gsave
0.000 setgray
fill
grestore
stroke
grestore
} bind def
483.264 126.72 o
grestore
0.800 setlinewidth
[2.96 1.28] 0 setdash
0.690 setgray
gsave
892.8 887 144 126.7 clipbox
492.192 126.72 m
492.192 1013.76 l
stroke
grestore
0.600 setlinewidth
[] 0 setdash
0.000 setgray
gsave
/o {
gsave
newpath
translate
0.6 setlinewidth
1 setlinejoin
0 setlinecap
0 0 m
0 -2 l

gsave
0.000 setgray
fill
grestore
stroke
grestore
} bind def
492.192 126.72 o
grestore
0.800 setlinewidth
[2.96 1.28] 0 setdash
0.690 setgray
gsave
892.8 887 144 126.7 clipbox
501.12 126.72 m
501.12 1013.76 l
stroke
grestore
0.600 setlinewidth
[] 0 setdash
0.000 setgray
gsave
/o {
gsave
newpath
translate
0.6 setlinewidth
1 setlinejoin
0 setlinecap
0 0 m
0 -2 l

gsave
0.000 setgray
fill
grestore
stroke
grestore
} bind def
501.12 126.72 o
grestore
0.800 setlinewidth
[2.96 1.28] 0 setdash
0.690 setgray
gsave
892.8 887 144 126.7 clipbox
510.048 126.72 m
510.048 1013.76 l
stroke
grestore
0.600 setlinewidth
[] 0 setdash
0.000 setgray
gsave
/o {
gsave
newpath
translate
0.6 setlinewidth
1 setlinejoin
0 setlinecap
0 0 m
0 -2 l

gsave
0.000 setgray
fill
grestore
stroke
grestore
} bind def
510.048 126.72 o
grestore
0.800 setlinewidth
[2.96 1.28] 0 setdash
0.690 setgray
gsave
892.8 887 144 126.7 clipbox
518.976 126.72 m
518.976 1013.76 l
stroke
grestore
0.600 setlinewidth
[] 0 setdash
0.000 setgray
gsave
/o {
gsave
newpath
translate
0.6 setlinewidth
1 setlinejoin
0 setlinecap
0 0 m
0 -2 l

gsave
0.000 setgray
fill
grestore
stroke
grestore
} bind def
518.976 126.72 o
grestore
0.800 setlinewidth
[2.96 1.28] 0 setdash
0.690 setgray
gsave
892.8 887 144 126.7 clipbox
527.904 126.72 m
527.904 1013.76 l
stroke
grestore
0.600 setlinewidth
[] 0 setdash
0.000 setgray
gsave
/o {
gsave
newpath
translate
0.6 setlinewidth
1 setlinejoin
0 setlinecap
0 0 m
0 -2 l

gsave
0.000 setgray
fill
grestore
stroke
grestore
} bind def
527.904 126.72 o
grestore
0.800 setlinewidth
[2.96 1.28] 0 setdash
0.690 setgray
gsave
892.8 887 144 126.7 clipbox
536.832 126.72 m
536.832 1013.76 l
stroke
grestore
0.600 setlinewidth
[] 0 setdash
0.000 setgray
gsave
/o {
gsave
newpath
translate
0.6 setlinewidth
1 setlinejoin
0 setlinecap
0 0 m
0 -2 l

gsave
0.000 setgray
fill
grestore
stroke
grestore
} bind def
536.832 126.72 o
grestore
0.800 setlinewidth
[2.96 1.28] 0 setdash
0.690 setgray
gsave
892.8 887 144 126.7 clipbox
545.76 126.72 m
545.76 1013.76 l
stroke
grestore
0.600 setlinewidth
[] 0 setdash
0.000 setgray
gsave
/o {
gsave
newpath
translate
0.6 setlinewidth
1 setlinejoin
0 setlinecap
0 0 m
0 -2 l

gsave
0.000 setgray
fill
grestore
stroke
grestore
} bind def
545.76 126.72 o
grestore
0.800 setlinewidth
[2.96 1.28] 0 setdash
0.690 setgray
gsave
892.8 887 144 126.7 clipbox
554.688 126.72 m
554.688 1013.76 l
stroke
grestore
0.600 setlinewidth
[] 0 setdash
0.000 setgray
gsave
/o {
gsave
newpath
translate
0.6 setlinewidth
1 setlinejoin
0 setlinecap
0 0 m
0 -2 l

gsave
0.000 setgray
fill
grestore
stroke
grestore
} bind def
554.688 126.72 o
grestore
0.800 setlinewidth
[2.96 1.28] 0 setdash
0.690 setgray
gsave
892.8 887 144 126.7 clipbox
563.616 126.72 m
563.616 1013.76 l
stroke
grestore
0.600 setlinewidth
[] 0 setdash
0.000 setgray
gsave
/o {
gsave
newpath
translate
0.6 setlinewidth
1 setlinejoin
0 setlinecap
0 0 m
0 -2 l

gsave
0.000 setgray
fill
grestore
stroke
grestore
} bind def
563.616 126.72 o
grestore
0.800 setlinewidth
[2.96 1.28] 0 setdash
0.690 setgray
gsave
892.8 887 144 126.7 clipbox
572.544 126.72 m
572.544 1013.76 l
stroke
grestore
0.600 setlinewidth
[] 0 setdash
0.000 setgray
gsave
/o {
gsave
newpath
translate
0.6 setlinewidth
1 setlinejoin
0 setlinecap
0 0 m
0 -2 l

gsave
0.000 setgray
fill
grestore
stroke
grestore
} bind def
572.544 126.72 o
grestore
0.800 setlinewidth
[2.96 1.28] 0 setdash
0.690 setgray
gsave
892.8 887 144 126.7 clipbox
581.472 126.72 m
581.472 1013.76 l
stroke
grestore
0.600 setlinewidth
[] 0 setdash
0.000 setgray
gsave
/o {
gsave
newpath
translate
0.6 setlinewidth
1 setlinejoin
0 setlinecap
0 0 m
0 -2 l

gsave
0.000 setgray
fill
grestore
stroke
grestore
} bind def
581.472 126.72 o
grestore
0.800 setlinewidth
[2.96 1.28] 0 setdash
0.690 setgray
gsave
892.8 887 144 126.7 clipbox
590.4 126.72 m
590.4 1013.76 l
stroke
grestore
0.600 setlinewidth
[] 0 setdash
0.000 setgray
gsave
/o {
gsave
newpath
translate
0.6 setlinewidth
1 setlinejoin
0 setlinecap
0 0 m
0 -2 l

gsave
0.000 setgray
fill
grestore
stroke
grestore
} bind def
590.4 126.72 o
grestore
0.800 setlinewidth
[2.96 1.28] 0 setdash
0.690 setgray
gsave
892.8 887 144 126.7 clipbox
599.328 126.72 m
599.328 1013.76 l
stroke
grestore
0.600 setlinewidth
[] 0 setdash
0.000 setgray
gsave
/o {
gsave
newpath
translate
0.6 setlinewidth
1 setlinejoin
0 setlinecap
0 0 m
0 -2 l

gsave
0.000 setgray
fill
grestore
stroke
grestore
} bind def
599.328 126.72 o
grestore
0.800 setlinewidth
[2.96 1.28] 0 setdash
0.690 setgray
gsave
892.8 887 144 126.7 clipbox
608.256 126.72 m
608.256 1013.76 l
stroke
grestore
0.600 setlinewidth
[] 0 setdash
0.000 setgray
gsave
/o {
gsave
newpath
translate
0.6 setlinewidth
1 setlinejoin
0 setlinecap
0 0 m
0 -2 l

gsave
0.000 setgray
fill
grestore
stroke
grestore
} bind def
608.256 126.72 o
grestore
0.800 setlinewidth
[2.96 1.28] 0 setdash
0.690 setgray
gsave
892.8 887 144 126.7 clipbox
617.184 126.72 m
617.184 1013.76 l
stroke
grestore
0.600 setlinewidth
[] 0 setdash
0.000 setgray
gsave
/o {
gsave
newpath
translate
0.6 setlinewidth
1 setlinejoin
0 setlinecap
0 0 m
0 -2 l

gsave
0.000 setgray
fill
grestore
stroke
grestore
} bind def
617.184 126.72 o
grestore
0.800 setlinewidth
[2.96 1.28] 0 setdash
0.690 setgray
gsave
892.8 887 144 126.7 clipbox
626.112 126.72 m
626.112 1013.76 l
stroke
grestore
0.600 setlinewidth
[] 0 setdash
0.000 setgray
gsave
/o {
gsave
newpath
translate
0.6 setlinewidth
1 setlinejoin
0 setlinecap
0 0 m
0 -2 l

gsave
0.000 setgray
fill
grestore
stroke
grestore
} bind def
626.112 126.72 o
grestore
0.800 setlinewidth
[2.96 1.28] 0 setdash
0.690 setgray
gsave
892.8 887 144 126.7 clipbox
635.04 126.72 m
635.04 1013.76 l
stroke
grestore
0.600 setlinewidth
[] 0 setdash
0.000 setgray
gsave
/o {
gsave
newpath
translate
0.6 setlinewidth
1 setlinejoin
0 setlinecap
0 0 m
0 -2 l

gsave
0.000 setgray
fill
grestore
stroke
grestore
} bind def
635.04 126.72 o
grestore
0.800 setlinewidth
[2.96 1.28] 0 setdash
0.690 setgray
gsave
892.8 887 144 126.7 clipbox
643.968 126.72 m
643.968 1013.76 l
stroke
grestore
0.600 setlinewidth
[] 0 setdash
0.000 setgray
gsave
/o {
gsave
newpath
translate
0.6 setlinewidth
1 setlinejoin
0 setlinecap
0 0 m
0 -2 l

gsave
0.000 setgray
fill
grestore
stroke
grestore
} bind def
643.968 126.72 o
grestore
0.800 setlinewidth
[2.96 1.28] 0 setdash
0.690 setgray
gsave
892.8 887 144 126.7 clipbox
652.896 126.72 m
652.896 1013.76 l
stroke
grestore
0.600 setlinewidth
[] 0 setdash
0.000 setgray
gsave
/o {
gsave
newpath
translate
0.6 setlinewidth
1 setlinejoin
0 setlinecap
0 0 m
0 -2 l

gsave
0.000 setgray
fill
grestore
stroke
grestore
} bind def
652.896 126.72 o
grestore
0.800 setlinewidth
[2.96 1.28] 0 setdash
0.690 setgray
gsave
892.8 887 144 126.7 clipbox
661.824 126.72 m
661.824 1013.76 l
stroke
grestore
0.600 setlinewidth
[] 0 setdash
0.000 setgray
gsave
/o {
gsave
newpath
translate
0.6 setlinewidth
1 setlinejoin
0 setlinecap
0 0 m
0 -2 l

gsave
0.000 setgray
fill
grestore
stroke
grestore
} bind def
661.824 126.72 o
grestore
0.800 setlinewidth
[2.96 1.28] 0 setdash
0.690 setgray
gsave
892.8 887 144 126.7 clipbox
670.752 126.72 m
670.752 1013.76 l
stroke
grestore
0.600 setlinewidth
[] 0 setdash
0.000 setgray
gsave
/o {
gsave
newpath
translate
0.6 setlinewidth
1 setlinejoin
0 setlinecap
0 0 m
0 -2 l

gsave
0.000 setgray
fill
grestore
stroke
grestore
} bind def
670.752 126.72 o
grestore
0.800 setlinewidth
[2.96 1.28] 0 setdash
0.690 setgray
gsave
892.8 887 144 126.7 clipbox
679.68 126.72 m
679.68 1013.76 l
stroke
grestore
0.600 setlinewidth
[] 0 setdash
0.000 setgray
gsave
/o {
gsave
newpath
translate
0.6 setlinewidth
1 setlinejoin
0 setlinecap
0 0 m
0 -2 l

gsave
0.000 setgray
fill
grestore
stroke
grestore
} bind def
679.68 126.72 o
grestore
0.800 setlinewidth
[2.96 1.28] 0 setdash
0.690 setgray
gsave
892.8 887 144 126.7 clipbox
688.608 126.72 m
688.608 1013.76 l
stroke
grestore
0.600 setlinewidth
[] 0 setdash
0.000 setgray
gsave
/o {
gsave
newpath
translate
0.6 setlinewidth
1 setlinejoin
0 setlinecap
0 0 m
0 -2 l

gsave
0.000 setgray
fill
grestore
stroke
grestore
} bind def
688.608 126.72 o
grestore
0.800 setlinewidth
[2.96 1.28] 0 setdash
0.690 setgray
gsave
892.8 887 144 126.7 clipbox
697.536 126.72 m
697.536 1013.76 l
stroke
grestore
0.600 setlinewidth
[] 0 setdash
0.000 setgray
gsave
/o {
gsave
newpath
translate
0.6 setlinewidth
1 setlinejoin
0 setlinecap
0 0 m
0 -2 l

gsave
0.000 setgray
fill
grestore
stroke
grestore
} bind def
697.536 126.72 o
grestore
0.800 setlinewidth
[2.96 1.28] 0 setdash
0.690 setgray
gsave
892.8 887 144 126.7 clipbox
706.464 126.72 m
706.464 1013.76 l
stroke
grestore
0.600 setlinewidth
[] 0 setdash
0.000 setgray
gsave
/o {
gsave
newpath
translate
0.6 setlinewidth
1 setlinejoin
0 setlinecap
0 0 m
0 -2 l

gsave
0.000 setgray
fill
grestore
stroke
grestore
} bind def
706.464 126.72 o
grestore
0.800 setlinewidth
[2.96 1.28] 0 setdash
0.690 setgray
gsave
892.8 887 144 126.7 clipbox
715.392 126.72 m
715.392 1013.76 l
stroke
grestore
0.600 setlinewidth
[] 0 setdash
0.000 setgray
gsave
/o {
gsave
newpath
translate
0.6 setlinewidth
1 setlinejoin
0 setlinecap
0 0 m
0 -2 l

gsave
0.000 setgray
fill
grestore
stroke
grestore
} bind def
715.392 126.72 o
grestore
0.800 setlinewidth
[2.96 1.28] 0 setdash
0.690 setgray
gsave
892.8 887 144 126.7 clipbox
724.32 126.72 m
724.32 1013.76 l
stroke
grestore
0.600 setlinewidth
[] 0 setdash
0.000 setgray
gsave
/o {
gsave
newpath
translate
0.6 setlinewidth
1 setlinejoin
0 setlinecap
0 0 m
0 -2 l

gsave
0.000 setgray
fill
grestore
stroke
grestore
} bind def
724.32 126.72 o
grestore
0.800 setlinewidth
[2.96 1.28] 0 setdash
0.690 setgray
gsave
892.8 887 144 126.7 clipbox
733.248 126.72 m
733.248 1013.76 l
stroke
grestore
0.600 setlinewidth
[] 0 setdash
0.000 setgray
gsave
/o {
gsave
newpath
translate
0.6 setlinewidth
1 setlinejoin
0 setlinecap
0 0 m
0 -2 l

gsave
0.000 setgray
fill
grestore
stroke
grestore
} bind def
733.248 126.72 o
grestore
0.800 setlinewidth
[2.96 1.28] 0 setdash
0.690 setgray
gsave
892.8 887 144 126.7 clipbox
742.176 126.72 m
742.176 1013.76 l
stroke
grestore
0.600 setlinewidth
[] 0 setdash
0.000 setgray
gsave
/o {
gsave
newpath
translate
0.6 setlinewidth
1 setlinejoin
0 setlinecap
0 0 m
0 -2 l

gsave
0.000 setgray
fill
grestore
stroke
grestore
} bind def
742.176 126.72 o
grestore
0.800 setlinewidth
[2.96 1.28] 0 setdash
0.690 setgray
gsave
892.8 887 144 126.7 clipbox
751.104 126.72 m
751.104 1013.76 l
stroke
grestore
0.600 setlinewidth
[] 0 setdash
0.000 setgray
gsave
/o {
gsave
newpath
translate
0.6 setlinewidth
1 setlinejoin
0 setlinecap
0 0 m
0 -2 l

gsave
0.000 setgray
fill
grestore
stroke
grestore
} bind def
751.104 126.72 o
grestore
0.800 setlinewidth
[2.96 1.28] 0 setdash
0.690 setgray
gsave
892.8 887 144 126.7 clipbox
760.032 126.72 m
760.032 1013.76 l
stroke
grestore
0.600 setlinewidth
[] 0 setdash
0.000 setgray
gsave
/o {
gsave
newpath
translate
0.6 setlinewidth
1 setlinejoin
0 setlinecap
0 0 m
0 -2 l

gsave
0.000 setgray
fill
grestore
stroke
grestore
} bind def
760.032 126.72 o
grestore
0.800 setlinewidth
[2.96 1.28] 0 setdash
0.690 setgray
gsave
892.8 887 144 126.7 clipbox
768.96 126.72 m
768.96 1013.76 l
stroke
grestore
0.600 setlinewidth
[] 0 setdash
0.000 setgray
gsave
/o {
gsave
newpath
translate
0.6 setlinewidth
1 setlinejoin
0 setlinecap
0 0 m
0 -2 l

gsave
0.000 setgray
fill
grestore
stroke
grestore
} bind def
768.96 126.72 o
grestore
0.800 setlinewidth
[2.96 1.28] 0 setdash
0.690 setgray
gsave
892.8 887 144 126.7 clipbox
777.888 126.72 m
777.888 1013.76 l
stroke
grestore
0.600 setlinewidth
[] 0 setdash
0.000 setgray
gsave
/o {
gsave
newpath
translate
0.6 setlinewidth
1 setlinejoin
0 setlinecap
0 0 m
0 -2 l

gsave
0.000 setgray
fill
grestore
stroke
grestore
} bind def
777.888 126.72 o
grestore
0.800 setlinewidth
[2.96 1.28] 0 setdash
0.690 setgray
gsave
892.8 887 144 126.7 clipbox
786.816 126.72 m
786.816 1013.76 l
stroke
grestore
0.600 setlinewidth
[] 0 setdash
0.000 setgray
gsave
/o {
gsave
newpath
translate
0.6 setlinewidth
1 setlinejoin
0 setlinecap
0 0 m
0 -2 l

gsave
0.000 setgray
fill
grestore
stroke
grestore
} bind def
786.816 126.72 o
grestore
0.800 setlinewidth
[2.96 1.28] 0 setdash
0.690 setgray
gsave
892.8 887 144 126.7 clipbox
795.744 126.72 m
795.744 1013.76 l
stroke
grestore
0.600 setlinewidth
[] 0 setdash
0.000 setgray
gsave
/o {
gsave
newpath
translate
0.6 setlinewidth
1 setlinejoin
0 setlinecap
0 0 m
0 -2 l

gsave
0.000 setgray
fill
grestore
stroke
grestore
} bind def
795.744 126.72 o
grestore
0.800 setlinewidth
[2.96 1.28] 0 setdash
0.690 setgray
gsave
892.8 887 144 126.7 clipbox
804.672 126.72 m
804.672 1013.76 l
stroke
grestore
0.600 setlinewidth
[] 0 setdash
0.000 setgray
gsave
/o {
gsave
newpath
translate
0.6 setlinewidth
1 setlinejoin
0 setlinecap
0 0 m
0 -2 l

gsave
0.000 setgray
fill
grestore
stroke
grestore
} bind def
804.672 126.72 o
grestore
0.800 setlinewidth
[2.96 1.28] 0 setdash
0.690 setgray
gsave
892.8 887 144 126.7 clipbox
813.6 126.72 m
813.6 1013.76 l
stroke
grestore
0.600 setlinewidth
[] 0 setdash
0.000 setgray
gsave
/o {
gsave
newpath
translate
0.6 setlinewidth
1 setlinejoin
0 setlinecap
0 0 m
0 -2 l

gsave
0.000 setgray
fill
grestore
stroke
grestore
} bind def
813.6 126.72 o
grestore
0.800 setlinewidth
[2.96 1.28] 0 setdash
0.690 setgray
gsave
892.8 887 144 126.7 clipbox
822.528 126.72 m
822.528 1013.76 l
stroke
grestore
0.600 setlinewidth
[] 0 setdash
0.000 setgray
gsave
/o {
gsave
newpath
translate
0.6 setlinewidth
1 setlinejoin
0 setlinecap
0 0 m
0 -2 l

gsave
0.000 setgray
fill
grestore
stroke
grestore
} bind def
822.528 126.72 o
grestore
0.800 setlinewidth
[2.96 1.28] 0 setdash
0.690 setgray
gsave
892.8 887 144 126.7 clipbox
831.456 126.72 m
831.456 1013.76 l
stroke
grestore
0.600 setlinewidth
[] 0 setdash
0.000 setgray
gsave
/o {
gsave
newpath
translate
0.6 setlinewidth
1 setlinejoin
0 setlinecap
0 0 m
0 -2 l

gsave
0.000 setgray
fill
grestore
stroke
grestore
} bind def
831.456 126.72 o
grestore
0.800 setlinewidth
[2.96 1.28] 0 setdash
0.690 setgray
gsave
892.8 887 144 126.7 clipbox
840.384 126.72 m
840.384 1013.76 l
stroke
grestore
0.600 setlinewidth
[] 0 setdash
0.000 setgray
gsave
/o {
gsave
newpath
translate
0.6 setlinewidth
1 setlinejoin
0 setlinecap
0 0 m
0 -2 l

gsave
0.000 setgray
fill
grestore
stroke
grestore
} bind def
840.384 126.72 o
grestore
0.800 setlinewidth
[2.96 1.28] 0 setdash
0.690 setgray
gsave
892.8 887 144 126.7 clipbox
849.312 126.72 m
849.312 1013.76 l
stroke
grestore
0.600 setlinewidth
[] 0 setdash
0.000 setgray
gsave
/o {
gsave
newpath
translate
0.6 setlinewidth
1 setlinejoin
0 setlinecap
0 0 m
0 -2 l

gsave
0.000 setgray
fill
grestore
stroke
grestore
} bind def
849.312 126.72 o
grestore
0.800 setlinewidth
[2.96 1.28] 0 setdash
0.690 setgray
gsave
892.8 887 144 126.7 clipbox
858.24 126.72 m
858.24 1013.76 l
stroke
grestore
0.600 setlinewidth
[] 0 setdash
0.000 setgray
gsave
/o {
gsave
newpath
translate
0.6 setlinewidth
1 setlinejoin
0 setlinecap
0 0 m
0 -2 l

gsave
0.000 setgray
fill
grestore
stroke
grestore
} bind def
858.24 126.72 o
grestore
0.800 setlinewidth
[2.96 1.28] 0 setdash
0.690 setgray
gsave
892.8 887 144 126.7 clipbox
867.168 126.72 m
867.168 1013.76 l
stroke
grestore
0.600 setlinewidth
[] 0 setdash
0.000 setgray
gsave
/o {
gsave
newpath
translate
0.6 setlinewidth
1 setlinejoin
0 setlinecap
0 0 m
0 -2 l

gsave
0.000 setgray
fill
grestore
stroke
grestore
} bind def
867.168 126.72 o
grestore
0.800 setlinewidth
[2.96 1.28] 0 setdash
0.690 setgray
gsave
892.8 887 144 126.7 clipbox
876.096 126.72 m
876.096 1013.76 l
stroke
grestore
0.600 setlinewidth
[] 0 setdash
0.000 setgray
gsave
/o {
gsave
newpath
translate
0.6 setlinewidth
1 setlinejoin
0 setlinecap
0 0 m
0 -2 l

gsave
0.000 setgray
fill
grestore
stroke
grestore
} bind def
876.096 126.72 o
grestore
0.800 setlinewidth
[2.96 1.28] 0 setdash
0.690 setgray
gsave
892.8 887 144 126.7 clipbox
885.024 126.72 m
885.024 1013.76 l
stroke
grestore
0.600 setlinewidth
[] 0 setdash
0.000 setgray
gsave
/o {
gsave
newpath
translate
0.6 setlinewidth
1 setlinejoin
0 setlinecap
0 0 m
0 -2 l

gsave
0.000 setgray
fill
grestore
stroke
grestore
} bind def
885.024 126.72 o
grestore
0.800 setlinewidth
[2.96 1.28] 0 setdash
0.690 setgray
gsave
892.8 887 144 126.7 clipbox
893.952 126.72 m
893.952 1013.76 l
stroke
grestore
0.600 setlinewidth
[] 0 setdash
0.000 setgray
gsave
/o {
gsave
newpath
translate
0.6 setlinewidth
1 setlinejoin
0 setlinecap
0 0 m
0 -2 l

gsave
0.000 setgray
fill
grestore
stroke
grestore
} bind def
893.952 126.72 o
grestore
0.800 setlinewidth
[2.96 1.28] 0 setdash
0.690 setgray
gsave
892.8 887 144 126.7 clipbox
902.88 126.72 m
902.88 1013.76 l
stroke
grestore
0.600 setlinewidth
[] 0 setdash
0.000 setgray
gsave
/o {
gsave
newpath
translate
0.6 setlinewidth
1 setlinejoin
0 setlinecap
0 0 m
0 -2 l

gsave
0.000 setgray
fill
grestore
stroke
grestore
} bind def
902.88 126.72 o
grestore
0.800 setlinewidth
[2.96 1.28] 0 setdash
0.690 setgray
gsave
892.8 887 144 126.7 clipbox
911.808 126.72 m
911.808 1013.76 l
stroke
grestore
0.600 setlinewidth
[] 0 setdash
0.000 setgray
gsave
/o {
gsave
newpath
translate
0.6 setlinewidth
1 setlinejoin
0 setlinecap
0 0 m
0 -2 l

gsave
0.000 setgray
fill
grestore
stroke
grestore
} bind def
911.808 126.72 o
grestore
0.800 setlinewidth
[2.96 1.28] 0 setdash
0.690 setgray
gsave
892.8 887 144 126.7 clipbox
920.736 126.72 m
920.736 1013.76 l
stroke
grestore
0.600 setlinewidth
[] 0 setdash
0.000 setgray
gsave
/o {
gsave
newpath
translate
0.6 setlinewidth
1 setlinejoin
0 setlinecap
0 0 m
0 -2 l

gsave
0.000 setgray
fill
grestore
stroke
grestore
} bind def
920.736 126.72 o
grestore
0.800 setlinewidth
[2.96 1.28] 0 setdash
0.690 setgray
gsave
892.8 887 144 126.7 clipbox
929.664 126.72 m
929.664 1013.76 l
stroke
grestore
0.600 setlinewidth
[] 0 setdash
0.000 setgray
gsave
/o {
gsave
newpath
translate
0.6 setlinewidth
1 setlinejoin
0 setlinecap
0 0 m
0 -2 l

gsave
0.000 setgray
fill
grestore
stroke
grestore
} bind def
929.664 126.72 o
grestore
0.800 setlinewidth
[2.96 1.28] 0 setdash
0.690 setgray
gsave
892.8 887 144 126.7 clipbox
938.592 126.72 m
938.592 1013.76 l
stroke
grestore
0.600 setlinewidth
[] 0 setdash
0.000 setgray
gsave
/o {
gsave
newpath
translate
0.6 setlinewidth
1 setlinejoin
0 setlinecap
0 0 m
0 -2 l

gsave
0.000 setgray
fill
grestore
stroke
grestore
} bind def
938.592 126.72 o
grestore
0.800 setlinewidth
[2.96 1.28] 0 setdash
0.690 setgray
gsave
892.8 887 144 126.7 clipbox
947.52 126.72 m
947.52 1013.76 l
stroke
grestore
0.600 setlinewidth
[] 0 setdash
0.000 setgray
gsave
/o {
gsave
newpath
translate
0.6 setlinewidth
1 setlinejoin
0 setlinecap
0 0 m
0 -2 l

gsave
0.000 setgray
fill
grestore
stroke
grestore
} bind def
947.52 126.72 o
grestore
0.800 setlinewidth
[2.96 1.28] 0 setdash
0.690 setgray
gsave
892.8 887 144 126.7 clipbox
956.448 126.72 m
956.448 1013.76 l
stroke
grestore
0.600 setlinewidth
[] 0 setdash
0.000 setgray
gsave
/o {
gsave
newpath
translate
0.6 setlinewidth
1 setlinejoin
0 setlinecap
0 0 m
0 -2 l

gsave
0.000 setgray
fill
grestore
stroke
grestore
} bind def
956.448 126.72 o
grestore
0.800 setlinewidth
[2.96 1.28] 0 setdash
0.690 setgray
gsave
892.8 887 144 126.7 clipbox
965.376 126.72 m
965.376 1013.76 l
stroke
grestore
0.600 setlinewidth
[] 0 setdash
0.000 setgray
gsave
/o {
gsave
newpath
translate
0.6 setlinewidth
1 setlinejoin
0 setlinecap
0 0 m
0 -2 l

gsave
0.000 setgray
fill
grestore
stroke
grestore
} bind def
965.376 126.72 o
grestore
0.800 setlinewidth
[2.96 1.28] 0 setdash
0.690 setgray
gsave
892.8 887 144 126.7 clipbox
974.304 126.72 m
974.304 1013.76 l
stroke
grestore
0.600 setlinewidth
[] 0 setdash
0.000 setgray
gsave
/o {
gsave
newpath
translate
0.6 setlinewidth
1 setlinejoin
0 setlinecap
0 0 m
0 -2 l

gsave
0.000 setgray
fill
grestore
stroke
grestore
} bind def
974.304 126.72 o
grestore
0.800 setlinewidth
[2.96 1.28] 0 setdash
0.690 setgray
gsave
892.8 887 144 126.7 clipbox
983.232 126.72 m
983.232 1013.76 l
stroke
grestore
0.600 setlinewidth
[] 0 setdash
0.000 setgray
gsave
/o {
gsave
newpath
translate
0.6 setlinewidth
1 setlinejoin
0 setlinecap
0 0 m
0 -2 l

gsave
0.000 setgray
fill
grestore
stroke
grestore
} bind def
983.232 126.72 o
grestore
0.800 setlinewidth
[2.96 1.28] 0 setdash
0.690 setgray
gsave
892.8 887 144 126.7 clipbox
992.16 126.72 m
992.16 1013.76 l
stroke
grestore
0.600 setlinewidth
[] 0 setdash
0.000 setgray
gsave
/o {
gsave
newpath
translate
0.6 setlinewidth
1 setlinejoin
0 setlinecap
0 0 m
0 -2 l

gsave
0.000 setgray
fill
grestore
stroke
grestore
} bind def
992.16 126.72 o
grestore
0.800 setlinewidth
[2.96 1.28] 0 setdash
0.690 setgray
gsave
892.8 887 144 126.7 clipbox
1001.088 126.72 m
1001.088 1013.76 l
stroke
grestore
0.600 setlinewidth
[] 0 setdash
0.000 setgray
gsave
/o {
gsave
newpath
translate
0.6 setlinewidth
1 setlinejoin
0 setlinecap
0 0 m
0 -2 l

gsave
0.000 setgray
fill
grestore
stroke
grestore
} bind def
1001.09 126.72 o
grestore
0.800 setlinewidth
[2.96 1.28] 0 setdash
0.690 setgray
gsave
892.8 887 144 126.7 clipbox
1010.016 126.72 m
1010.016 1013.76 l
stroke
grestore
0.600 setlinewidth
[] 0 setdash
0.000 setgray
gsave
/o {
gsave
newpath
translate
0.6 setlinewidth
1 setlinejoin
0 setlinecap
0 0 m
0 -2 l

gsave
0.000 setgray
fill
grestore
stroke
grestore
} bind def
1010.02 126.72 o
grestore
0.800 setlinewidth
[2.96 1.28] 0 setdash
0.690 setgray
gsave
892.8 887 144 126.7 clipbox
1018.944 126.72 m
1018.944 1013.76 l
stroke
grestore
0.600 setlinewidth
[] 0 setdash
0.000 setgray
gsave
/o {
gsave
newpath
translate
0.6 setlinewidth
1 setlinejoin
0 setlinecap
0 0 m
0 -2 l

gsave
0.000 setgray
fill
grestore
stroke
grestore
} bind def
1018.94 126.72 o
grestore
0.800 setlinewidth
[2.96 1.28] 0 setdash
0.690 setgray
gsave
892.8 887 144 126.7 clipbox
1027.872 126.72 m
1027.872 1013.76 l
stroke
grestore
0.600 setlinewidth
[] 0 setdash
0.000 setgray
gsave
/o {
gsave
newpath
translate
0.6 setlinewidth
1 setlinejoin
0 setlinecap
0 0 m
0 -2 l

gsave
0.000 setgray
fill
grestore
stroke
grestore
} bind def
1027.87 126.72 o
grestore
gsave
534.900000 98.454375 translate
0.000000 rotate
/DejaVuSans findfont
10.0 scalefont
setfont
0.000000 0.406250 moveto
/D glyphshow

7.700195 0.406250 moveto
/e glyphshow

13.852539 0.406250 moveto
/t glyphshow

17.773438 0.406250 moveto
/e glyphshow

23.925781 0.406250 moveto
/c glyphshow

29.423828 0.406250 moveto
/t glyphshow

33.344727 0.406250 moveto
/i glyphshow

36.123047 0.406250 moveto
/o glyphshow

42.241211 0.406250 moveto
/n glyphshow

48.579102 0.406250 moveto
/space glyphshow

51.757812 0.406250 moveto
/T glyphshow

57.866211 0.406250 moveto
/h glyphshow

64.204102 0.406250 moveto
/r glyphshow

68.315430 0.406250 moveto
/e glyphshow

74.467773 0.406250 moveto
/s glyphshow

79.677734 0.406250 moveto
/h glyphshow

86.015625 0.406250 moveto
/o glyphshow

92.133789 0.406250 moveto
/l glyphshow

94.912109 0.406250 moveto
/d glyphshow

101.259766 0.406250 moveto
/space glyphshow

/DejaVuSans-Oblique findfont
10.0 scalefont
setfont
104.438477 0.406250 moveto
/delta glyphshow


grestore
0.800 setlinewidth
2 setlinecap
gsave
892.8 887 144 126.7 clipbox
144 126.72 m
1036.8 126.72 l
stroke
grestore
0 setlinecap
gsave
/o {
gsave
newpath
translate
0.8 setlinewidth
1 setlinejoin
0 setlinecap
0 0 m
-3.5 0 l

gsave
0.000 setgray
fill
grestore
stroke
grestore
} bind def
144 126.72 o
grestore
gsave
119.000000 122.259062 translate
0.000000 rotate
/DejaVuSans findfont
10.0 scalefont
setfont
0.000000 0.976562 moveto
/one glyphshow

6.362305 0.976562 moveto
/zero glyphshow

/DejaVuSans findfont
7.0 scalefont
setfont
12.820312 4.804688 moveto
/zero glyphshow


grestore
2 setlinecap
gsave
892.8 887 144 126.7 clipbox
144 324.847312 m
1036.8 324.847312 l
stroke
grestore
0 setlinecap
gsave
/o {
gsave
newpath
translate
0.8 setlinewidth
1 setlinejoin
0 setlinecap
0 0 m
-3.5 0 l

gsave
0.000 setgray
fill
grestore
stroke
grestore
} bind def
144 324.847 o
grestore
gsave
119.000000 320.886375 translate
0.000000 rotate
/DejaVuSans findfont
10.0 scalefont
setfont
0.000000 0.064063 moveto
/one glyphshow

6.362305 0.064063 moveto
/zero glyphshow

/DejaVuSans findfont
7.0 scalefont
setfont
12.820312 3.892188 moveto
/one glyphshow


grestore
2 setlinecap
gsave
892.8 887 144 126.7 clipbox
144 522.974624 m
1036.8 522.974624 l
stroke
grestore
0 setlinecap
gsave
/o {
gsave
newpath
translate
0.8 setlinewidth
1 setlinejoin
0 setlinecap
0 0 m
-3.5 0 l

gsave
0.000 setgray
fill
grestore
stroke
grestore
} bind def
144 522.975 o
grestore
gsave
119.000000 518.513687 translate
0.000000 rotate
/DejaVuSans findfont
10.0 scalefont
setfont
0.000000 0.976562 moveto
/one glyphshow

6.362305 0.976562 moveto
/zero glyphshow

/DejaVuSans findfont
7.0 scalefont
setfont
12.820312 4.804688 moveto
/two glyphshow


grestore
2 setlinecap
gsave
892.8 887 144 126.7 clipbox
144 721.101936 m
1036.8 721.101936 l
stroke
grestore
0 setlinecap
gsave
/o {
gsave
newpath
translate
0.8 setlinewidth
1 setlinejoin
0 setlinecap
0 0 m
-3.5 0 l

gsave
0.000 setgray
fill
grestore
stroke
grestore
} bind def
144 721.102 o
grestore
gsave
119.000000 716.640999 translate
0.000000 rotate
/DejaVuSans findfont
10.0 scalefont
setfont
0.000000 0.976562 moveto
/one glyphshow

6.362305 0.976562 moveto
/zero glyphshow

/DejaVuSans findfont
7.0 scalefont
setfont
12.820312 4.804688 moveto
/three glyphshow


grestore
2 setlinecap
gsave
892.8 887 144 126.7 clipbox
144 919.229248 m
1036.8 919.229248 l
stroke
grestore
0 setlinecap
gsave
/o {
gsave
newpath
translate
0.8 setlinewidth
1 setlinejoin
0 setlinecap
0 0 m
-3.5 0 l

gsave
0.000 setgray
fill
grestore
stroke
grestore
} bind def
144 919.229 o
grestore
gsave
119.000000 915.268311 translate
0.000000 rotate
/DejaVuSans findfont
10.0 scalefont
setfont
0.000000 0.064063 moveto
/one glyphshow

6.362305 0.064063 moveto
/zero glyphshow

/DejaVuSans findfont
7.0 scalefont
setfont
12.820312 3.892188 moveto
/four glyphshow


grestore
[2.96 1.28] 0 setdash
0.690 setgray
gsave
892.8 887 144 126.7 clipbox
144 186.362264 m
1036.8 186.362264 l
stroke
grestore
0.600 setlinewidth
[] 0 setdash
0.000 setgray
gsave
/o {
gsave
newpath
translate
0.6 setlinewidth
1 setlinejoin
0 setlinecap
0 0 m
-2 0 l

gsave
0.000 setgray
fill
grestore
stroke
grestore
} bind def
144 186.362 o
grestore
0.800 setlinewidth
[2.96 1.28] 0 setdash
0.690 setgray
gsave
892.8 887 144 126.7 clipbox
144 221.250752 m
1036.8 221.250752 l
stroke
grestore
0.600 setlinewidth
[] 0 setdash
0.000 setgray
gsave
/o {
gsave
newpath
translate
0.6 setlinewidth
1 setlinejoin
0 setlinecap
0 0 m
-2 0 l

gsave
0.000 setgray
fill
grestore
stroke
grestore
} bind def
144 221.251 o
grestore
0.800 setlinewidth
[2.96 1.28] 0 setdash
0.690 setgray
gsave
892.8 887 144 126.7 clipbox
144 246.004528 m
1036.8 246.004528 l
stroke
grestore
0.600 setlinewidth
[] 0 setdash
0.000 setgray
gsave
/o {
gsave
newpath
translate
0.6 setlinewidth
1 setlinejoin
0 setlinecap
0 0 m
-2 0 l

gsave
0.000 setgray
fill
grestore
stroke
grestore
} bind def
144 246.005 o
grestore
0.800 setlinewidth
[2.96 1.28] 0 setdash
0.690 setgray
gsave
892.8 887 144 126.7 clipbox
144 265.205048 m
1036.8 265.205048 l
stroke
grestore
0.600 setlinewidth
[] 0 setdash
0.000 setgray
gsave
/o {
gsave
newpath
translate
0.6 setlinewidth
1 setlinejoin
0 setlinecap
0 0 m
-2 0 l

gsave
0.000 setgray
fill
grestore
stroke
grestore
} bind def
144 265.205 o
grestore
0.800 setlinewidth
[2.96 1.28] 0 setdash
0.690 setgray
gsave
892.8 887 144 126.7 clipbox
144 280.893016 m
1036.8 280.893016 l
stroke
grestore
0.600 setlinewidth
[] 0 setdash
0.000 setgray
gsave
/o {
gsave
newpath
translate
0.6 setlinewidth
1 setlinejoin
0 setlinecap
0 0 m
-2 0 l

gsave
0.000 setgray
fill
grestore
stroke
grestore
} bind def
144 280.893 o
grestore
0.800 setlinewidth
[2.96 1.28] 0 setdash
0.690 setgray
gsave
892.8 887 144 126.7 clipbox
144 294.157003 m
1036.8 294.157003 l
stroke
grestore
0.600 setlinewidth
[] 0 setdash
0.000 setgray
gsave
/o {
gsave
newpath
translate
0.6 setlinewidth
1 setlinejoin
0 setlinecap
0 0 m
-2 0 l

gsave
0.000 setgray
fill
grestore
stroke
grestore
} bind def
144 294.157 o
grestore
0.800 setlinewidth
[2.96 1.28] 0 setdash
0.690 setgray
gsave
892.8 887 144 126.7 clipbox
144 305.646792 m
1036.8 305.646792 l
stroke
grestore
0.600 setlinewidth
[] 0 setdash
0.000 setgray
gsave
/o {
gsave
newpath
translate
0.6 setlinewidth
1 setlinejoin
0 setlinecap
0 0 m
-2 0 l

gsave
0.000 setgray
fill
grestore
stroke
grestore
} bind def
144 305.647 o
grestore
0.800 setlinewidth
[2.96 1.28] 0 setdash
0.690 setgray
gsave
892.8 887 144 126.7 clipbox
144 315.781503 m
1036.8 315.781503 l
stroke
grestore
0.600 setlinewidth
[] 0 setdash
0.000 setgray
gsave
/o {
gsave
newpath
translate
0.6 setlinewidth
1 setlinejoin
0 setlinecap
0 0 m
-2 0 l

gsave
0.000 setgray
fill
grestore
stroke
grestore
} bind def
144 315.782 o
grestore
0.800 setlinewidth
[2.96 1.28] 0 setdash
0.690 setgray
gsave
892.8 887 144 126.7 clipbox
144 384.489576 m
1036.8 384.489576 l
stroke
grestore
0.600 setlinewidth
[] 0 setdash
0.000 setgray
gsave
/o {
gsave
newpath
translate
0.6 setlinewidth
1 setlinejoin
0 setlinecap
0 0 m
-2 0 l

gsave
0.000 setgray
fill
grestore
stroke
grestore
} bind def
144 384.49 o
grestore
0.800 setlinewidth
[2.96 1.28] 0 setdash
0.690 setgray
gsave
892.8 887 144 126.7 clipbox
144 419.378064 m
1036.8 419.378064 l
stroke
grestore
0.600 setlinewidth
[] 0 setdash
0.000 setgray
gsave
/o {
gsave
newpath
translate
0.6 setlinewidth
1 setlinejoin
0 setlinecap
0 0 m
-2 0 l

gsave
0.000 setgray
fill
grestore
stroke
grestore
} bind def
144 419.378 o
grestore
0.800 setlinewidth
[2.96 1.28] 0 setdash
0.690 setgray
gsave
892.8 887 144 126.7 clipbox
144 444.13184 m
1036.8 444.13184 l
stroke
grestore
0.600 setlinewidth
[] 0 setdash
0.000 setgray
gsave
/o {
gsave
newpath
translate
0.6 setlinewidth
1 setlinejoin
0 setlinecap
0 0 m
-2 0 l

gsave
0.000 setgray
fill
grestore
stroke
grestore
} bind def
144 444.132 o
grestore
0.800 setlinewidth
[2.96 1.28] 0 setdash
0.690 setgray
gsave
892.8 887 144 126.7 clipbox
144 463.33236 m
1036.8 463.33236 l
stroke
grestore
0.600 setlinewidth
[] 0 setdash
0.000 setgray
gsave
/o {
gsave
newpath
translate
0.6 setlinewidth
1 setlinejoin
0 setlinecap
0 0 m
-2 0 l

gsave
0.000 setgray
fill
grestore
stroke
grestore
} bind def
144 463.332 o
grestore
0.800 setlinewidth
[2.96 1.28] 0 setdash
0.690 setgray
gsave
892.8 887 144 126.7 clipbox
144 479.020328 m
1036.8 479.020328 l
stroke
grestore
0.600 setlinewidth
[] 0 setdash
0.000 setgray
gsave
/o {
gsave
newpath
translate
0.6 setlinewidth
1 setlinejoin
0 setlinecap
0 0 m
-2 0 l

gsave
0.000 setgray
fill
grestore
stroke
grestore
} bind def
144 479.02 o
grestore
0.800 setlinewidth
[2.96 1.28] 0 setdash
0.690 setgray
gsave
892.8 887 144 126.7 clipbox
144 492.284315 m
1036.8 492.284315 l
stroke
grestore
0.600 setlinewidth
[] 0 setdash
0.000 setgray
gsave
/o {
gsave
newpath
translate
0.6 setlinewidth
1 setlinejoin
0 setlinecap
0 0 m
-2 0 l

gsave
0.000 setgray
fill
grestore
stroke
grestore
} bind def
144 492.284 o
grestore
0.800 setlinewidth
[2.96 1.28] 0 setdash
0.690 setgray
gsave
892.8 887 144 126.7 clipbox
144 503.774104 m
1036.8 503.774104 l
stroke
grestore
0.600 setlinewidth
[] 0 setdash
0.000 setgray
gsave
/o {
gsave
newpath
translate
0.6 setlinewidth
1 setlinejoin
0 setlinecap
0 0 m
-2 0 l

gsave
0.000 setgray
fill
grestore
stroke
grestore
} bind def
144 503.774 o
grestore
0.800 setlinewidth
[2.96 1.28] 0 setdash
0.690 setgray
gsave
892.8 887 144 126.7 clipbox
144 513.908816 m
1036.8 513.908816 l
stroke
grestore
0.600 setlinewidth
[] 0 setdash
0.000 setgray
gsave
/o {
gsave
newpath
translate
0.6 setlinewidth
1 setlinejoin
0 setlinecap
0 0 m
-2 0 l

gsave
0.000 setgray
fill
grestore
stroke
grestore
} bind def
144 513.909 o
grestore
0.800 setlinewidth
[2.96 1.28] 0 setdash
0.690 setgray
gsave
892.8 887 144 126.7 clipbox
144 582.616888 m
1036.8 582.616888 l
stroke
grestore
0.600 setlinewidth
[] 0 setdash
0.000 setgray
gsave
/o {
gsave
newpath
translate
0.6 setlinewidth
1 setlinejoin
0 setlinecap
0 0 m
-2 0 l

gsave
0.000 setgray
fill
grestore
stroke
grestore
} bind def
144 582.617 o
grestore
0.800 setlinewidth
[2.96 1.28] 0 setdash
0.690 setgray
gsave
892.8 887 144 126.7 clipbox
144 617.505376 m
1036.8 617.505376 l
stroke
grestore
0.600 setlinewidth
[] 0 setdash
0.000 setgray
gsave
/o {
gsave
newpath
translate
0.6 setlinewidth
1 setlinejoin
0 setlinecap
0 0 m
-2 0 l

gsave
0.000 setgray
fill
grestore
stroke
grestore
} bind def
144 617.505 o
grestore
0.800 setlinewidth
[2.96 1.28] 0 setdash
0.690 setgray
gsave
892.8 887 144 126.7 clipbox
144 642.259152 m
1036.8 642.259152 l
stroke
grestore
0.600 setlinewidth
[] 0 setdash
0.000 setgray
gsave
/o {
gsave
newpath
translate
0.6 setlinewidth
1 setlinejoin
0 setlinecap
0 0 m
-2 0 l

gsave
0.000 setgray
fill
grestore
stroke
grestore
} bind def
144 642.259 o
grestore
0.800 setlinewidth
[2.96 1.28] 0 setdash
0.690 setgray
gsave
892.8 887 144 126.7 clipbox
144 661.459672 m
1036.8 661.459672 l
stroke
grestore
0.600 setlinewidth
[] 0 setdash
0.000 setgray
gsave
/o {
gsave
newpath
translate
0.6 setlinewidth
1 setlinejoin
0 setlinecap
0 0 m
-2 0 l

gsave
0.000 setgray
fill
grestore
stroke
grestore
} bind def
144 661.46 o
grestore
0.800 setlinewidth
[2.96 1.28] 0 setdash
0.690 setgray
gsave
892.8 887 144 126.7 clipbox
144 677.14764 m
1036.8 677.14764 l
stroke
grestore
0.600 setlinewidth
[] 0 setdash
0.000 setgray
gsave
/o {
gsave
newpath
translate
0.6 setlinewidth
1 setlinejoin
0 setlinecap
0 0 m
-2 0 l

gsave
0.000 setgray
fill
grestore
stroke
grestore
} bind def
144 677.148 o
grestore
0.800 setlinewidth
[2.96 1.28] 0 setdash
0.690 setgray
gsave
892.8 887 144 126.7 clipbox
144 690.411627 m
1036.8 690.411627 l
stroke
grestore
0.600 setlinewidth
[] 0 setdash
0.000 setgray
gsave
/o {
gsave
newpath
translate
0.6 setlinewidth
1 setlinejoin
0 setlinecap
0 0 m
-2 0 l

gsave
0.000 setgray
fill
grestore
stroke
grestore
} bind def
144 690.412 o
grestore
0.800 setlinewidth
[2.96 1.28] 0 setdash
0.690 setgray
gsave
892.8 887 144 126.7 clipbox
144 701.901416 m
1036.8 701.901416 l
stroke
grestore
0.600 setlinewidth
[] 0 setdash
0.000 setgray
gsave
/o {
gsave
newpath
translate
0.6 setlinewidth
1 setlinejoin
0 setlinecap
0 0 m
-2 0 l

gsave
0.000 setgray
fill
grestore
stroke
grestore
} bind def
144 701.901 o
grestore
0.800 setlinewidth
[2.96 1.28] 0 setdash
0.690 setgray
gsave
892.8 887 144 126.7 clipbox
144 712.036128 m
1036.8 712.036128 l
stroke
grestore
0.600 setlinewidth
[] 0 setdash
0.000 setgray
gsave
/o {
gsave
newpath
translate
0.6 setlinewidth
1 setlinejoin
0 setlinecap
0 0 m
-2 0 l

gsave
0.000 setgray
fill
grestore
stroke
grestore
} bind def
144 712.036 o
grestore
0.800 setlinewidth
[2.96 1.28] 0 setdash
0.690 setgray
gsave
892.8 887 144 126.7 clipbox
144 780.7442 m
1036.8 780.7442 l
stroke
grestore
0.600 setlinewidth
[] 0 setdash
0.000 setgray
gsave
/o {
gsave
newpath
translate
0.6 setlinewidth
1 setlinejoin
0 setlinecap
0 0 m
-2 0 l

gsave
0.000 setgray
fill
grestore
stroke
grestore
} bind def
144 780.744 o
grestore
0.800 setlinewidth
[2.96 1.28] 0 setdash
0.690 setgray
gsave
892.8 887 144 126.7 clipbox
144 815.632688 m
1036.8 815.632688 l
stroke
grestore
0.600 setlinewidth
[] 0 setdash
0.000 setgray
gsave
/o {
gsave
newpath
translate
0.6 setlinewidth
1 setlinejoin
0 setlinecap
0 0 m
-2 0 l

gsave
0.000 setgray
fill
grestore
stroke
grestore
} bind def
144 815.633 o
grestore
0.800 setlinewidth
[2.96 1.28] 0 setdash
0.690 setgray
gsave
892.8 887 144 126.7 clipbox
144 840.386464 m
1036.8 840.386464 l
stroke
grestore
0.600 setlinewidth
[] 0 setdash
0.000 setgray
gsave
/o {
gsave
newpath
translate
0.6 setlinewidth
1 setlinejoin
0 setlinecap
0 0 m
-2 0 l

gsave
0.000 setgray
fill
grestore
stroke
grestore
} bind def
144 840.386 o
grestore
0.800 setlinewidth
[2.96 1.28] 0 setdash
0.690 setgray
gsave
892.8 887 144 126.7 clipbox
144 859.586984 m
1036.8 859.586984 l
stroke
grestore
0.600 setlinewidth
[] 0 setdash
0.000 setgray
gsave
/o {
gsave
newpath
translate
0.6 setlinewidth
1 setlinejoin
0 setlinecap
0 0 m
-2 0 l

gsave
0.000 setgray
fill
grestore
stroke
grestore
} bind def
144 859.587 o
grestore
0.800 setlinewidth
[2.96 1.28] 0 setdash
0.690 setgray
gsave
892.8 887 144 126.7 clipbox
144 875.274952 m
1036.8 875.274952 l
stroke
grestore
0.600 setlinewidth
[] 0 setdash
0.000 setgray
gsave
/o {
gsave
newpath
translate
0.6 setlinewidth
1 setlinejoin
0 setlinecap
0 0 m
-2 0 l

gsave
0.000 setgray
fill
grestore
stroke
grestore
} bind def
144 875.275 o
grestore
0.800 setlinewidth
[2.96 1.28] 0 setdash
0.690 setgray
gsave
892.8 887 144 126.7 clipbox
144 888.538939 m
1036.8 888.538939 l
stroke
grestore
0.600 setlinewidth
[] 0 setdash
0.000 setgray
gsave
/o {
gsave
newpath
translate
0.6 setlinewidth
1 setlinejoin
0 setlinecap
0 0 m
-2 0 l

gsave
0.000 setgray
fill
grestore
stroke
grestore
} bind def
144 888.539 o
grestore
0.800 setlinewidth
[2.96 1.28] 0 setdash
0.690 setgray
gsave
892.8 887 144 126.7 clipbox
144 900.028728 m
1036.8 900.028728 l
stroke
grestore
0.600 setlinewidth
[] 0 setdash
0.000 setgray
gsave
/o {
gsave
newpath
translate
0.6 setlinewidth
1 setlinejoin
0 setlinecap
0 0 m
-2 0 l

gsave
0.000 setgray
fill
grestore
stroke
grestore
} bind def
144 900.029 o
grestore
0.800 setlinewidth
[2.96 1.28] 0 setdash
0.690 setgray
gsave
892.8 887 144 126.7 clipbox
144 910.16344 m
1036.8 910.16344 l
stroke
grestore
0.600 setlinewidth
[] 0 setdash
0.000 setgray
gsave
/o {
gsave
newpath
translate
0.6 setlinewidth
1 setlinejoin
0 setlinecap
0 0 m
-2 0 l

gsave
0.000 setgray
fill
grestore
stroke
grestore
} bind def
144 910.163 o
grestore
0.800 setlinewidth
[2.96 1.28] 0 setdash
0.690 setgray
gsave
892.8 887 144 126.7 clipbox
144 978.871512 m
1036.8 978.871512 l
stroke
grestore
0.600 setlinewidth
[] 0 setdash
0.000 setgray
gsave
/o {
gsave
newpath
translate
0.6 setlinewidth
1 setlinejoin
0 setlinecap
0 0 m
-2 0 l

gsave
0.000 setgray
fill
grestore
stroke
grestore
} bind def
144 978.872 o
grestore
0.800 setlinewidth
[2.96 1.28] 0 setdash
0.690 setgray
gsave
892.8 887 144 126.7 clipbox
144 1013.76 m
1036.8 1013.76 l
stroke
grestore
0.600 setlinewidth
[] 0 setdash
0.000 setgray
gsave
/o {
gsave
newpath
translate
0.6 setlinewidth
1 setlinejoin
0 setlinecap
0 0 m
-2 0 l

gsave
0.000 setgray
fill
grestore
stroke
grestore
} bind def
144 1013.76 o
grestore
gsave
112.000000 520.240000 translate
90.000000 rotate
/DejaVuSans findfont
10.0 scalefont
setfont
0.000000 0.406250 moveto
/N glyphshow

7.480469 0.406250 moveto
/u glyphshow

13.818359 0.406250 moveto
/m glyphshow

23.559570 0.406250 moveto
/b glyphshow

29.907227 0.406250 moveto
/e glyphshow

36.059570 0.406250 moveto
/r glyphshow

40.170898 0.406250 moveto
/space glyphshow

43.349609 0.406250 moveto
/o glyphshow

49.467773 0.406250 moveto
/f glyphshow

52.988281 0.406250 moveto
/space glyphshow

56.166992 0.406250 moveto
/g glyphshow

62.514648 0.406250 moveto
/a glyphshow

68.642578 0.406250 moveto
/m glyphshow

78.383789 0.406250 moveto
/e glyphshow

84.536133 0.406250 moveto
/s glyphshow

89.746094 0.406250 moveto
/space glyphshow

/DejaVuSans-Oblique findfont
10.0 scalefont
setfont
92.924805 0.406250 moveto
/n glyphshow


grestore
1.500 setlinewidth
2 setlinecap
0.122 0.467 0.706 setrgbcolor
gsave
892.8 887 144 126.7 clipbox
161.856 985.501638 m
179.712 867.017983 l
197.568 796.539657 l
215.424 747.686086 l
233.28 709.612148 l
251.136 678.569913 l
268.992 651.238872 l
286.848 629.780323 l
304.704 610.641951 l
322.56 592.368323 l
340.416 576.372499 l
358.272 561.237882 l
376.128 545.549914 l
393.984 535.000524 l
411.84 522.974624 l
429.696 512.947402 l
447.552 501.595618 l
465.408 493.504841 l
483.264 481.841748 l
501.12 476.103248 l
518.976 465.036289 l
536.832 452.332861 l
554.688 448.330019 l
572.544 437.423592 l
590.4 432.642051 l
608.256 427.579085 l
626.112 419.378064 l
643.968 413.441531 l
661.824 403.690096 l
679.68 396.515476 l
697.536 393.984541 l
715.392 384.489576 l
733.248 375.423767 l
751.104 372.176378 l
768.96 365.289056 l
786.816 359.7358 l
804.672 359.7358 l
822.528 347.422602 l
840.384 347.422602 l
858.24 344.047832 l
876.096 333.048334 l
893.952 333.048334 l
911.808 333.048334 l
929.664 313.357523 l
947.52 305.646792 l
965.376 305.646792 l
983.232 305.646792 l
1001.088 300.093536 l
1018.944 265.205048 l
1036.8 265.205048 l
stroke
grestore
1.000 0.498 0.055 setrgbcolor
gsave
892.8 887 144 126.7 clipbox
179.712 901.637701 m
197.568 831.535501 l
215.424 793.60776 l
233.28 744.106382 l
251.136 713.505408 l
268.992 686.899074 l
286.848 664.169994 l
304.704 644.173719 l
322.56 625.966747 l
340.416 609.074593 l
358.272 595.016088 l
376.128 581.316426 l
393.984 568.125204 l
411.84 556.124758 l
429.696 546.863613 l
447.552 534.249029 l
465.408 523.830806 l
483.264 515.800004 l
501.12 506.941784 l
518.976 497.065856 l
536.832 488.515292 l
554.688 483.218507 l
572.544 473.083795 l
590.4 465.036289 l
608.256 458.008254 l
626.112 452.332861 l
643.968 448.330019 l
661.824 437.423592 l
679.68 432.642051 l
697.536 427.579085 l
715.392 419.378064 l
733.248 413.441531 l
751.104 403.690096 l
768.96 403.690096 l
786.816 396.515476 l
804.672 384.489576 l
822.528 384.489576 l
840.384 370.505537 l
858.24 370.505537 l
876.096 359.7358 l
893.952 359.7358 l
911.808 359.7358 l
929.664 340.53528 l
947.52 340.53528 l
965.376 340.53528 l
983.232 315.781503 l
1001.088 315.781503 l
1018.944 315.781503 l
1036.8 280.893016 l
stroke
grestore
0.173 0.627 0.173 setrgbcolor
gsave
892.8 887 144 126.7 clipbox
179.712 954.717957 m
197.568 885.447898 l
215.424 834.833208 l
251.136 764.840849 l
268.992 738.317906 l
286.848 715.042393 l
304.704 694.492658 l
322.56 678.145694 l
340.416 660.768539 l
358.272 645.633922 l
376.128 631.747165 l
393.984 617.505376 l
411.84 606.831191 l
429.696 595.757865 l
447.552 584.320817 l
465.408 576.372499 l
483.264 564.485271 l
501.12 554.350559 l
518.976 547.513017 l
536.832 540.084865 l
554.688 529.596783 l
572.544 522.109837 l
590.4 515.800004 l
608.256 508.990586 l
626.112 501.595618 l
643.968 493.504841 l
661.824 487.221349 l
679.68 480.442601 l
697.536 474.606765 l
715.392 466.70713 l
733.248 461.594006 l
751.104 452.332861 l
768.96 448.330019 l
786.816 441.953354 l
804.672 437.423592 l
822.528 430.147801 l
840.384 424.931319 l
858.24 416.460984 l
876.096 407.064866 l
893.952 407.064866 l
911.808 400.177543 l
929.664 388.687755 l
947.52 388.687755 l
965.376 375.423767 l
983.232 375.423767 l
1001.088 359.7358 l
1018.944 340.53528 l
1036.8 305.646792 l
stroke
grestore
0.839 0.153 0.157 setrgbcolor
gsave
892.8 887 144 126.7 clipbox
179.712 885.077589 m
197.568 816.574022 l
215.424 766.455934 l
233.28 729.107177 l
251.136 697.600997 l
268.992 671.211107 l
286.848 647.677856 l
304.704 628.779781 l
322.56 611.260987 l
340.416 594.642788 l
358.272 579.996007 l
376.128 568.125204 l
393.984 553.750936 l
411.84 542.86077 l
429.696 527.988407 l
447.552 522.974624 l
465.408 510.991736 l
483.264 501.595618 l
501.12 491.046228 l
518.976 481.841748 l
536.832 476.103248 l
554.688 465.036289 l
572.544 461.594006 l
590.4 452.332861 l
608.256 448.330019 l
626.112 437.423592 l
643.968 432.642051 l
661.824 419.378064 l
679.68 413.441531 l
697.536 413.441531 l
715.392 407.064866 l
733.248 396.515476 l
751.104 388.687755 l
768.96 388.687755 l
786.816 375.423767 l
804.672 375.423767 l
822.528 365.289056 l
840.384 365.289056 l
858.24 347.422602 l
876.096 347.422602 l
893.952 347.422602 l
911.808 333.048334 l
929.664 333.048334 l
947.52 333.048334 l
965.376 305.646792 l
983.232 305.646792 l
1001.088 305.646792 l
1018.944 305.646792 l
1036.8 265.205048 l
stroke
grestore
0.580 0.404 0.741 setrgbcolor
gsave
892.8 887 144 126.7 clipbox
179.712 928.603407 m
197.568 858.878502 l
215.424 809.72688 l
233.28 771.102833 l
251.136 739.888443 l
268.992 713.270118 l
286.848 690.042068 l
304.704 670.59429 l
322.56 652.775441 l
340.416 636.245758 l
358.272 621.155492 l
376.128 606.831191 l
393.984 593.891293 l
411.84 581.752101 l
429.696 571.127099 l
447.552 559.567041 l
465.408 550.688492 l
483.264 541.484012 l
501.12 531.175646 l
518.976 523.830806 l
536.832 515.800004 l
554.688 506.941784 l
572.544 501.595618 l
590.4 493.504841 l
608.256 484.573583 l
626.112 477.574149 l
643.968 469.954519 l
661.824 461.594006 l
679.68 458.008254 l
697.536 452.332861 l
715.392 441.953354 l
733.248 437.423592 l
751.104 430.147801 l
768.96 430.147801 l
786.816 420.800337 l
804.672 416.460984 l
822.528 407.064866 l
840.384 407.064866 l
858.24 400.177543 l
876.096 388.687755 l
893.952 388.687755 l
911.808 375.423767 l
929.664 375.423767 l
947.52 359.7358 l
965.376 359.7358 l
983.232 359.7358 l
1001.088 340.53528 l
1018.944 340.53528 l
1036.8 305.646792 l
stroke
grestore
0.549 0.337 0.294 setrgbcolor
gsave
892.8 887 144 126.7 clipbox
161.856 931.270111 m
179.712 809.634672 l
197.568 741.736014 l
215.424 693.549683 l
233.28 657.04611 l
251.136 627.00034 l
268.992 602.503034 l
286.848 578.65501 l
304.704 558.434846 l
322.56 537.942541 l
340.416 524.678553 l
358.272 508.990586 l
376.128 500.485337 l
393.984 487.221349 l
411.84 474.606765 l
429.696 459.819807 l
447.552 452.332861 l
465.408 441.953354 l
483.264 432.642051 l
501.12 427.579085 l
518.976 413.441531 l
536.832 407.064866 l
554.688 407.064866 l
572.544 388.687755 l
590.4 388.687755 l
608.256 380.076014 l
626.112 380.076014 l
643.968 370.505537 l
661.824 353.799267 l
679.68 353.799267 l
697.536 353.799267 l
715.392 340.53528 l
733.248 340.53528 l
751.104 340.53528 l
768.96 315.781503 l
786.816 315.781503 l
804.672 315.781503 l
822.528 315.781503 l
840.384 315.781503 l
858.24 294.157003 l
876.096 294.157003 l
893.952 294.157003 l
911.808 294.157003 l
929.664 294.157003 l
947.52 294.157003 l
965.376 246.004528 l
983.232 246.004528 l
1001.088 246.004528 l
1018.944 246.004528 l
1036.8 246.004528 l
stroke
grestore
0.890 0.467 0.761 setrgbcolor
gsave
892.8 887 144 126.7 clipbox
161.856 876.697226 m
179.712 758.366588 l
197.568 691.024054 l
215.424 643.115334 l
233.28 605.851535 l
251.136 574.027788 l
268.992 554.350559 l
286.848 527.988407 l
304.704 510.991736 l
322.56 494.708295 l
340.416 477.574149 l
358.272 468.346143 l
376.128 452.332861 l
393.984 444.13184 l
411.84 427.579085 l
429.696 422.199484 l
447.552 416.460984 l
465.408 403.690096 l
483.264 392.690597 l
501.12 384.489576 l
518.976 384.489576 l
536.832 375.423767 l
554.688 375.423767 l
572.544 347.422602 l
590.4 347.422602 l
608.256 347.422602 l
626.112 333.048334 l
643.968 333.048334 l
661.824 305.646792 l
679.68 305.646792 l
697.536 305.646792 l
715.392 305.646792 l
733.248 305.646792 l
751.104 305.646792 l
768.96 280.893016 l
786.816 280.893016 l
804.672 280.893016 l
822.528 280.893016 l
840.384 280.893016 l
858.24 280.893016 l
876.096 280.893016 l
893.952 221.250752 l
911.808 221.250752 l
929.664 221.250752 l
947.52 221.250752 l
965.376 221.250752 l
983.232 221.250752 l
1001.088 221.250752 l
1018.944 221.250752 l
1036.8 221.250752 l
stroke
grestore
0.800 setlinewidth
0 setlinejoin
[] 0 setdash
0.000 setgray
gsave
144 126.72 m
144 1013.76 l
stroke
grestore
gsave
1036.8 126.72 m
1036.8 1013.76 l
stroke
grestore
gsave
144 126.72 m
1036.8 126.72 l
stroke
grestore
gsave
144 1013.76 m
1036.8 1013.76 l
stroke
grestore
gsave
467.900000 1019.760000 translate
0.000000 rotate
/DejaVuSans findfont
12.0 scalefont
setfont
0.000000 0.812500 moveto
/M glyphshow

10.353516 0.812500 moveto
/i glyphshow

13.687500 0.812500 moveto
/n glyphshow

21.292969 0.812500 moveto
/space glyphshow

/DejaVuSans-Oblique findfont
12.0 scalefont
setfont
25.107422 0.812500 moveto
/n glyphshow

/DejaVuSans findfont
12.0 scalefont
setfont
32.712891 0.812500 moveto
/space glyphshow

36.527344 0.812500 moveto
/r glyphshow

41.460938 0.812500 moveto
/e glyphshow

48.843750 0.812500 moveto
/q glyphshow

56.460938 0.812500 moveto
/u glyphshow

64.066406 0.812500 moveto
/i glyphshow

67.400391 0.812500 moveto
/r glyphshow

72.333984 0.812500 moveto
/e glyphshow

79.716797 0.812500 moveto
/d glyphshow

87.333984 0.812500 moveto
/space glyphshow

91.148438 0.812500 moveto
/f glyphshow

95.373047 0.812500 moveto
/o glyphshow

102.714844 0.812500 moveto
/r glyphshow

107.648438 0.812500 moveto
/space glyphshow

111.462891 0.812500 moveto
/d glyphshow

119.080078 0.812500 moveto
/e glyphshow

126.462891 0.812500 moveto
/s glyphshow

132.714844 0.812500 moveto
/i glyphshow

136.048828 0.812500 moveto
/r glyphshow

140.982422 0.812500 moveto
/e glyphshow

148.365234 0.812500 moveto
/d glyphshow

155.982422 0.812500 moveto
/space glyphshow

159.796875 0.812500 moveto
/T glyphshow

167.126953 0.812500 moveto
/y glyphshow

174.228516 0.812500 moveto
/p glyphshow

181.845703 0.812500 moveto
/e glyphshow

189.228516 0.812500 moveto
/space glyphshow

193.042969 0.812500 moveto
/I glyphshow

196.582031 0.812500 moveto
/I glyphshow

200.121094 0.812500 moveto
/space glyphshow

203.935547 0.812500 moveto
/e glyphshow

211.318359 0.812500 moveto
/r glyphshow

216.251953 0.812500 moveto
/r glyphshow

221.185547 0.812500 moveto
/o glyphshow

228.527344 0.812500 moveto
/r glyphshow

233.460938 0.812500 moveto
/space glyphshow

/DejaVuSans-Oblique findfont
12.0 scalefont
setfont
237.275391 0.812500 moveto
/beta glyphshow


grestore
1.000 setlinewidth
0 setlinecap
0.800 setgray
gsave
908.8 893.76 m
1029.8 893.76 l
1031.133333 893.76 1031.8 894.426667 1031.8 895.76 c
1031.8 1006.76 l
1031.8 1008.093333 1031.133333 1008.76 1029.8 1008.76 c
908.8 1008.76 l
907.466667 1008.76 906.8 1008.093333 906.8 1006.76 c
906.8 895.76 l
906.8 894.426667 907.466667 893.76 908.8 893.76 c
cl
gsave
1.000 setgray
fill
grestore
stroke
grestore
1.500 setlinewidth
1 setlinejoin
2 setlinecap
[] 0 setdash
0.173 0.627 0.173 setrgbcolor
gsave
910.8 1000.26 m
930.8 1000.26 l
stroke
grestore
0.000 setgray
gsave
938.800000 996.760000 translate
0.000000 rotate
/DejaVuSans-Oblique findfont
10.0 scalefont
setfont
0.000000 0.343750 moveto
/alpha glyphshow

/DejaVuSans findfont
10.0 scalefont
setfont
8.540039 0.343750 moveto
/equal glyphshow

18.867188 0.343750 moveto
/zero glyphshow

25.229492 0.343750 moveto
/period glyphshow

28.408203 0.343750 moveto
/zero glyphshow

34.770508 0.343750 moveto
/one glyphshow

41.132812 0.343750 moveto
/comma glyphshow

44.311523 0.343750 moveto
/space glyphshow

/DejaVuSans-Oblique findfont
10.0 scalefont
setfont
47.490234 0.343750 moveto
/beta glyphshow

/DejaVuSans findfont
10.0 scalefont
setfont
55.820312 0.343750 moveto
/equal glyphshow

66.147461 0.343750 moveto
/zero glyphshow

72.509766 0.343750 moveto
/period glyphshow

75.688477 0.343750 moveto
/zero glyphshow

82.050781 0.343750 moveto
/one glyphshow


grestore
0.580 0.404 0.741 setrgbcolor
gsave
910.8 984.26 m
930.8 984.26 l
stroke
grestore
0.000 setgray
gsave
938.800000 980.760000 translate
0.000000 rotate
/DejaVuSans-Oblique findfont
10.0 scalefont
setfont
0.000000 0.343750 moveto
/alpha glyphshow

/DejaVuSans findfont
10.0 scalefont
setfont
8.540039 0.343750 moveto
/equal glyphshow

18.867188 0.343750 moveto
/zero glyphshow

25.229492 0.343750 moveto
/period glyphshow

28.408203 0.343750 moveto
/zero glyphshow

34.770508 0.343750 moveto
/one glyphshow

41.132812 0.343750 moveto
/comma glyphshow

44.311523 0.343750 moveto
/space glyphshow

/DejaVuSans-Oblique findfont
10.0 scalefont
setfont
47.490234 0.343750 moveto
/beta glyphshow

/DejaVuSans findfont
10.0 scalefont
setfont
55.820312 0.343750 moveto
/equal glyphshow

66.147461 0.343750 moveto
/zero glyphshow

72.509766 0.343750 moveto
/period glyphshow

75.688477 0.343750 moveto
/zero glyphshow

82.050781 0.343750 moveto
/five glyphshow


grestore
1.000 0.498 0.055 setrgbcolor
gsave
910.8 968.26 m
930.8 968.26 l
stroke
grestore
0.000 setgray
gsave
938.800000 964.760000 translate
0.000000 rotate
/DejaVuSans-Oblique findfont
10.0 scalefont
setfont
0.000000 0.343750 moveto
/alpha glyphshow

/DejaVuSans findfont
10.0 scalefont
setfont
8.540039 0.343750 moveto
/equal glyphshow

18.867188 0.343750 moveto
/zero glyphshow

25.229492 0.343750 moveto
/period glyphshow

28.408203 0.343750 moveto
/zero glyphshow

34.770508 0.343750 moveto
/five glyphshow

41.132812 0.343750 moveto
/comma glyphshow

44.311523 0.343750 moveto
/space glyphshow

/DejaVuSans-Oblique findfont
10.0 scalefont
setfont
47.490234 0.343750 moveto
/beta glyphshow

/DejaVuSans findfont
10.0 scalefont
setfont
55.820312 0.343750 moveto
/equal glyphshow

66.147461 0.343750 moveto
/zero glyphshow

72.509766 0.343750 moveto
/period glyphshow

75.688477 0.343750 moveto
/zero glyphshow

82.050781 0.343750 moveto
/five glyphshow


grestore
0.839 0.153 0.157 setrgbcolor
gsave
910.8 952.26 m
930.8 952.26 l
stroke
grestore
0.000 setgray
gsave
938.800000 948.760000 translate
0.000000 rotate
/DejaVuSans-Oblique findfont
10.0 scalefont
setfont
0.000000 0.343750 moveto
/alpha glyphshow

/DejaVuSans findfont
10.0 scalefont
setfont
8.540039 0.343750 moveto
/equal glyphshow

18.867188 0.343750 moveto
/zero glyphshow

25.229492 0.343750 moveto
/period glyphshow

28.408203 0.343750 moveto
/one glyphshow

34.770508 0.343750 moveto
/comma glyphshow

37.949219 0.343750 moveto
/space glyphshow

/DejaVuSans-Oblique findfont
10.0 scalefont
setfont
41.127930 0.343750 moveto
/beta glyphshow

/DejaVuSans findfont
10.0 scalefont
setfont
49.458008 0.343750 moveto
/equal glyphshow

59.785156 0.343750 moveto
/zero glyphshow

66.147461 0.343750 moveto
/period glyphshow

69.326172 0.343750 moveto
/zero glyphshow

75.688477 0.343750 moveto
/five glyphshow


grestore
0.122 0.467 0.706 setrgbcolor
gsave
910.8 936.26 m
930.8 936.26 l
stroke
grestore
0.000 setgray
gsave
938.800000 932.760000 translate
0.000000 rotate
/DejaVuSans-Oblique findfont
10.0 scalefont
setfont
0.000000 0.343750 moveto
/alpha glyphshow

/DejaVuSans findfont
10.0 scalefont
setfont
8.540039 0.343750 moveto
/equal glyphshow

18.867188 0.343750 moveto
/zero glyphshow

25.229492 0.343750 moveto
/period glyphshow

28.408203 0.343750 moveto
/one glyphshow

34.770508 0.343750 moveto
/comma glyphshow

37.949219 0.343750 moveto
/space glyphshow

/DejaVuSans-Oblique findfont
10.0 scalefont
setfont
41.127930 0.343750 moveto
/beta glyphshow

/DejaVuSans findfont
10.0 scalefont
setfont
49.458008 0.343750 moveto
/equal glyphshow

59.785156 0.343750 moveto
/zero glyphshow

66.147461 0.343750 moveto
/period glyphshow

69.326172 0.343750 moveto
/one glyphshow


grestore
0.549 0.337 0.294 setrgbcolor
gsave
910.8 920.26 m
930.8 920.26 l
stroke
grestore
0.000 setgray
gsave
938.800000 916.760000 translate
0.000000 rotate
/DejaVuSans-Oblique findfont
10.0 scalefont
setfont
0.000000 0.343750 moveto
/alpha glyphshow

/DejaVuSans findfont
10.0 scalefont
setfont
8.540039 0.343750 moveto
/equal glyphshow

18.867188 0.343750 moveto
/zero glyphshow

25.229492 0.343750 moveto
/period glyphshow

28.408203 0.343750 moveto
/two glyphshow

34.770508 0.343750 moveto
/comma glyphshow

37.949219 0.343750 moveto
/space glyphshow

/DejaVuSans-Oblique findfont
10.0 scalefont
setfont
41.127930 0.343750 moveto
/beta glyphshow

/DejaVuSans findfont
10.0 scalefont
setfont
49.458008 0.343750 moveto
/equal glyphshow

59.785156 0.343750 moveto
/zero glyphshow

66.147461 0.343750 moveto
/period glyphshow

69.326172 0.343750 moveto
/two glyphshow


grestore
0.890 0.467 0.761 setrgbcolor
gsave
910.8 904.26 m
930.8 904.26 l
stroke
grestore
0.000 setgray
gsave
938.800000 900.760000 translate
0.000000 rotate
/DejaVuSans-Oblique findfont
10.0 scalefont
setfont
0.000000 0.343750 moveto
/alpha glyphshow

/DejaVuSans findfont
10.0 scalefont
setfont
8.540039 0.343750 moveto
/equal glyphshow

18.867188 0.343750 moveto
/zero glyphshow

25.229492 0.343750 moveto
/period glyphshow

28.408203 0.343750 moveto
/three glyphshow

34.770508 0.343750 moveto
/comma glyphshow

37.949219 0.343750 moveto
/space glyphshow

/DejaVuSans-Oblique findfont
10.0 scalefont
setfont
41.127930 0.343750 moveto
/beta glyphshow

/DejaVuSans findfont
10.0 scalefont
setfont
49.458008 0.343750 moveto
/equal glyphshow

59.785156 0.343750 moveto
/zero glyphshow

66.147461 0.343750 moveto
/period glyphshow

69.326172 0.343750 moveto
/three glyphshow


grestore

end
showpage
